<?xml version="1.0" encoding="UTF-8"?>
<!DOCTYPE svg PUBLIC "-//W3C//DTD SVG 1.1//EN" "http://www.w3.org/Graphics/SVG/1.1/DTD/svg11.dtd">
<!-- Creator: CorelDRAW X7 -->
<svg xmlns="http://www.w3.org/2000/svg" xml:space="preserve" width="101.224mm" height="26.8014mm" version="1.1" style="shape-rendering:geometricPrecision; text-rendering:geometricPrecision; image-rendering:optimizeQuality; fill-rule:evenodd; clip-rule:evenodd"
viewBox="0 0 5565 1474"
 xmlns:xlink="http://www.w3.org/1999/xlink">
 <defs>
  <style type="text/css">
   <![CDATA[
    .str4 {stroke:#373435;stroke-width:9.69323}
    .str5 {stroke:#BDBFC1;stroke-width:4.18959}
    .str3 {stroke:#373435;stroke-width:4.18959}
    .str6 {stroke:#00AFEF;stroke-width:4.18959}
    .str1 {stroke:#00AFEF;stroke-width:4.18959}
    .str2 {stroke:#00A859;stroke-width:4.18959}
    .str0 {stroke:#373435;stroke-width:4.18959;stroke-dasharray:41.895878 20.947939}
    .fil3 {fill:none}
    .fil10 {fill:#E6E7E8}
    .fil1 {fill:#E6E7E8}
    .fil6 {fill:#8682AB}
    .fil4 {fill:#00AFEF}
    .fil5 {fill:#00A859}
    .fil2 {fill:#BDBFC1;fill-rule:nonzero}
    .fil9 {fill:#373435;fill-rule:nonzero}
    .fil0 {fill:#373435;fill-rule:nonzero}
    .fil8 {fill:#00AFEF;fill-rule:nonzero}
    .fil7 {fill:#00A859;fill-rule:nonzero}
   ]]>
  </style>
 </defs>
 <g id="Layer_x0020_1">
  <metadata id="CorelCorpID_0Corel-Layer"/>
  <path class="fil0" d="M455 1307c0,-2 -1,-2 -4,-2 -7,0 -7,-2 -8,-4l-17 -44 23 -25 1 -2c3,-3 9,-9 19,-9 1,-1 3,-1 3,-3 0,-1 -1,-2 -2,-2 -4,0 -8,1 -12,1 -5,0 -10,-1 -14,-1 -1,0 -2,0 -2,3 0,1 1,2 1,2 1,0 5,0 5,4 0,1 0,2 -3,5l-20 23 -10 -27 0 -1c0,-1 2,-4 7,-4 1,0 3,-1 3,-3 0,-1 -1,-2 -2,-2 -5,0 -11,1 -16,1 -5,0 -10,-1 -14,-1 -1,0 -3,0 -3,3 0,2 2,2 4,2 7,0 7,1 9,4l14 38 -29 32c-8,9 -15,10 -20,10 -1,0 -1,3 -1,3 0,0 0,1 1,1 4,0 8,0 12,0 5,0 10,0 14,0 1,0 3,0 3,-3 0,-1 -2,-1 -2,-1 -4,0 -5,-3 -5,-4 0,-1 0,-2 1,-3 1,-1 1,-1 1,-1l0 0 26 -30 12 32c0,1 0,1 0,2 0,1 -2,4 -7,4 -1,0 -3,0 -3,3 0,1 2,1 3,1 5,0 10,0 15,0 5,0 10,0 14,0 1,0 3,0 3,-2z"/>
  <path class="fil0" d="M394 986c0,0 0,-2 -2,-2 -3,0 -7,1 -10,1 -5,0 -9,-1 -13,-1 -1,0 -2,0 -2,3 0,2 1,2 2,2 2,0 4,1 4,3 0,2 -3,6 -4,6l-29 36 -13 -40c-1,-2 -1,-2 -1,-2 0,-3 6,-3 8,-3 1,0 3,0 3,-3 0,-2 -2,-2 -2,-2 -5,0 -11,1 -16,1 -5,0 -10,-1 -14,-1 -1,0 -3,0 -3,3 0,2 2,2 4,2 6,0 7,1 8,4l15 45c0,1 0,2 0,2 0,1 -5,22 -6,25 -2,7 -2,8 -12,8 -2,0 -3,0 -3,3 0,1 1,1 1,1 6,0 11,0 16,0 6,0 11,0 16,0 1,0 3,0 3,-2 0,-2 -1,-2 -4,-2 -4,0 -8,0 -8,-2 0,-1 2,-8 3,-12l4 -17c1,-2 1,-2 2,-3l32 -39c6,-8 11,-11 18,-11 1,0 3,0 3,-3z"/>
  <path class="fil0" d="M71 1060c0,-2 -1,-2 -2,-2 -1,0 -2,0 -3,4 -5,15 -9,28 -33,28l-20 0 70 -84c2,-1 2,-2 2,-3 0,-1 -1,-1 -3,-1l-53 0c-3,0 -3,0 -4,2l-7 25c0,0 -1,2 -1,2 0,1 2,1 2,1 2,0 2,0 3,-2 4,-13 9,-24 31,-24l19 0 -71 84c0,1 -1,2 -1,3 0,1 1,1 3,1l54 0c3,0 4,0 4,-2l10 -30c0,0 0,-2 0,-2z"/>
  <polygon class="fil1" points="1024,480 178,1329 642,1329 1487,480 "/>
  <g>
   <path class="fil2" d="M573 1333l-395 0 0 -9 395 0 0 9zm45 -4l-53 22 1 -1 0 -2 1 -1 1 -1 0 -2 1 -1 0 -2 0 -1 1 -2 0 -1 0 -1 0 -2 1 -1 0 -2 0 -1 0 -1 0 -2 0 -1 0 -2 -1 -1 0 -1 0 -2 0 -1 -1 -2 0 -1 0 -2 -1 -1 0 -1 -1 -2 -1 -1 0 -2 -1 -1 0 0 53 23z"/>
  </g>
  <g>
   <path class="fil2" d="M733 1173l-394 0 0 -10 394 0 0 10zm45 -5l-53 22 1 -1 1 -1 0 -2 1 -1 0 -2 1 -1 0 -1 1 -2 0 -1 0 -2 0 -1 1 -2 0 -1 0 -1 0 -2 0 -1 0 -2 0 -1 0 -1 0 -2 -1 -1 0 -2 0 -1 0 -2 -1 -1 0 -1 -1 -2 0 -1 -1 -2 0 -1 -1 -1 -1 -2 0 0 53 23z"/>
  </g>
  <g>
   <path class="fil2" d="M893 1012l-394 0 0 -10 394 0 0 10zm45 -5l-52 23 0 -2 1 -1 1 -2 0 -1 1 -1 0 -2 0 -1 1 -2 0 -1 0 -2 1 -1 0 -1 0 -2 0 -1 0 -2 0 -1 0 -1 0 -2 0 -1 0 -2 0 -1 -1 -1 0 -2 0 -1 -1 -2 0 -1 0 -2 -1 -1 0 -1 -1 -2 -1 -1 0 -2 0 0 52 23z"/>
  </g>
  <g>
   <path class="fil2" d="M1054 851l-395 0 0 -10 395 0 0 10zm45 -5l-53 23 1 -2 0 -1 1 -1 0 -2 1 -1 0 -2 1 -1 0 -1 0 -2 1 -1 0 -2 0 -1 0 -2 0 -1 0 -1 0 -2 0 -1 0 -2 0 -1 0 -1 0 -2 0 -1 -1 -2 0 -1 0 -2 -1 -1 0 -1 -1 -2 0 -1 -1 -2 0 -1 -1 -1 0 0 53 22z"/>
  </g>
  <g>
   <path class="fil2" d="M1214 690l-395 0 0 -9 395 0 0 9zm45 -5l-53 23 1 -1 0 -2 1 -1 1 -2 0 -1 1 -1 0 -2 0 -1 1 -2 0 -1 0 -2 0 -1 1 -1 0 -2 0 -1 0 -2 0 -1 0 -1 0 -2 -1 -1 0 -2 0 -1 0 -1 -1 -2 0 -1 0 -2 -1 -1 0 -2 -1 -1 -1 -1 0 -2 -1 -1 0 0 53 22z"/>
  </g>
  <g>
   <path class="fil2" d="M1374 529l-395 0 0 -9 395 0 0 9zm45 -4l-53 22 1 -1 1 -2 0 -1 1 -1 0 -2 1 -1 0 -2 1 -1 0 -1 0 -2 0 -1 1 -2 0 -1 0 -2 0 -1 0 -1 0 -2 0 -1 0 -2 0 -1 -1 -1 0 -2 0 -1 0 -2 -1 -1 0 -2 -1 -1 0 -1 -1 -2 0 -1 -1 -2 -1 -1 0 0 53 23z"/>
  </g>
  <line class="fil3 str0" x1="178" y1="1329" x2="1024" y2= "480" />
  <line class="fil3 str0" x1="642" y1="1329" x2="1487" y2= "480" />
  <circle class="fil4 str1" cx="1024" cy="480" r="37"/>
  <circle class="fil4 str1" cx="1487" cy="480" r="37"/>
  <circle class="fil5 str2" cx="178" cy="1329" r="37"/>
  <circle class="fil5 str2" cx="642" cy="1329" r="37"/>
  <line class="fil3 str3" x1="1061" y1="480" x2="1258" y2= "480" />
  <polygon class="fil6 str4" points="287,1201 178,1329 "/>
  <path class="fil7" d="M364 1469c0,-2 -1,-2 -4,-2 -9,0 -9,-1 -9,-3 0,-1 1,-2 1,-3l24 -95c0,-1 0,-2 0,-2 0,-2 -1,-2 -2,-2 -2,0 -8,6 -11,11 -2,-5 -6,-11 -15,-11 -19,0 -40,26 -40,52 0,14 8,27 21,27 8,0 14,-5 19,-10 -4,14 -3,14 -7,28 -2,7 -2,8 -13,8 -2,0 -4,0 -4,3 0,2 1,3 2,3 5,0 12,-1 17,-1 6,0 12,1 18,1 1,0 3,0 3,-4zm-13 -52c-1,6 -12,20 -21,20 -8,0 -10,-11 -10,-16 0,-9 6,-29 9,-36 4,-11 12,-20 19,-20 2,0 6,1 9,5 2,3 3,8 3,12 0,0 0,1 0,2l-9 33z"/>
  <path id="1" class="fil7" d="M431 1472c0,-1 -1,-1 -2,-1 -5,0 -5,-1 -6,-3l-10 -28 14 -16 1 -1c2,-2 5,-6 12,-6 1,0 2,0 2,-2 0,-1 -1,-1 -1,-1 -3,0 -6,0 -8,0 -3,0 -6,0 -9,0 -1,0 -2,0 -2,2 0,1 1,1 1,1 1,0 4,0 4,2 0,1 -1,2 -2,4l-13 15 -7 -18 0 -1c0,0 2,-2 5,-2 0,0 1,0 1,-2 0,-1 0,-1 -1,-1 -3,0 -7,0 -10,0 -3,0 -6,0 -9,0 0,0 -2,0 -2,2 0,1 1,1 3,1 4,0 5,1 5,2l9 25 -18 21c-5,5 -10,6 -13,6 -1,0 -1,2 -1,2 0,0 0,1 1,1 3,0 5,-1 8,-1 3,0 6,1 9,1 0,0 2,0 2,-2 0,-1 -2,-1 -2,-1 -2,0 -3,-2 -3,-3 0,0 0,-1 1,-2 0,0 0,0 0,0l0 -1 17 -19 8 21c0,1 0,1 0,1 0,1 -2,3 -5,3 0,0 -1,0 -1,2 0,1 1,1 1,1 3,0 7,-1 10,-1 3,0 6,1 9,1 1,0 2,0 2,-2z"/>
  <path class="fil8" d="M1209 407l0 -6 -5 0c-16,0 -17,-2 -17,-8l0 -98c0,-4 0,-5 -4,-5 -11,11 -26,11 -31,11l0 6c3,0 13,0 22,-5l0 91c0,6 0,8 -16,8l-5 0 0 6c6,-1 21,-1 28,-1 7,0 22,0 28,1z"/>
  <path id="1" class="fil8" d="M1272 349c-2,1 -3,2 -5,2 -2,0 -3,-1 -5,-2 -1,-2 -2,-3 -2,-5 0,-2 1,-4 2,-5 2,-1 3,-2 5,-2 2,0 3,1 5,2 1,1 2,3 2,5 0,2 -1,3 -2,5z"/>
  <path id="2" class="fil8" d="M1385 437c0,-2 -1,-2 -4,-2 -9,0 -9,-1 -9,-3 0,-1 1,-2 1,-3l24 -95c0,-1 0,-3 0,-3 0,-1 -1,-1 -2,-1 -2,0 -8,6 -11,11 -2,-5 -6,-12 -15,-12 -19,0 -40,27 -40,52 0,15 8,27 22,27 7,0 13,-4 18,-9 -3,14 -3,14 -7,28 -2,7 -2,8 -13,8 -2,0 -4,0 -4,3 0,2 1,2 2,2 6,0 12,0 18,0 5,0 12,0 17,0 1,0 3,0 3,-3zm-12 -52c-2,6 -13,20 -22,20 -8,0 -10,-11 -10,-16 0,-9 6,-29 9,-36 4,-11 12,-20 19,-20 2,0 6,0 9,5 2,3 3,8 3,11 0,1 0,2 0,3l-8 33z"/>
  <path id="3" class="fil8" d="M1452 440c0,-1 -1,-1 -2,-1 -5,0 -5,-1 -6,-3l-10 -28 14 -16 1 -1c2,-2 5,-6 12,-6 1,-1 2,-1 2,-2 0,-1 -1,-1 -1,-1 -3,0 -5,0 -8,0 -3,0 -6,0 -9,0 0,0 -1,0 -1,2 0,0 0,1 1,1 0,0 3,0 3,2 0,1 -1,2 -2,4l-13 15 -6 -18 -1 -1c0,-1 2,-2 5,-2 1,0 2,-1 2,-2 0,-1 -1,-1 -2,-1 -3,0 -6,0 -10,0 -3,0 -6,0 -9,0 0,0 -1,0 -1,2 0,1 0,1 2,1 4,0 5,0 5,2l9 25 -18 20c-5,6 -10,7 -13,7 -1,0 -1,1 -1,1 0,1 0,1 1,1 3,0 6,0 8,0 3,0 6,0 9,0 0,0 2,0 2,-1 0,-1 -1,-1 -1,-1 -3,0 -3,-2 -3,-3 0,0 0,-1 0,-2 0,0 0,0 1,0l0 -1 16 -19 8 21c0,0 0,1 0,1 0,1 -1,3 -5,3 0,0 -1,0 -1,1 0,1 1,1 1,1 4,0 7,0 10,0 3,0 7,0 9,0 1,0 2,0 2,-1z"/>
  <g>
   <path class="fil9" d="M183 1114l0 215 -10 0 0 -215 10 0zm-5 -45l23 53 -2 -1 -1 -1 -1 0 -2 -1 -1 0 -2 -1 -1 0 -1 0 -2 -1 -1 0 -2 0 -1 0 -2 -1 -1 0 -1 0 -2 0 -1 0 -2 0 -1 0 -1 1 -2 0 -1 0 -2 0 -1 1 -1 0 -2 0 -1 1 -2 0 -1 1 -2 0 -1 1 -1 1 0 0 22 -53z"/>
  </g>
  <g>
   <path class="fil7" d="M573 1333l-395 0 0 -9 395 0 0 9zm45 -4l-53 22 1 -1 0 -2 1 -1 1 -1 0 -2 1 -1 0 -2 0 -1 1 -2 0 -1 0 -1 0 -2 1 -1 0 -2 0 -1 0 -1 0 -2 0 -1 0 -2 -1 -1 0 -1 0 -2 0 -1 -1 -2 0 -1 0 -2 -1 -1 0 -1 -1 -2 -1 -1 0 -2 -1 -1 0 0 53 23z"/>
  </g>
  <g>
   <path class="fil9" d="M312 1180l-130 152 -7 -7 129 -152 8 7zm25 -38l-17 55 -1 -1 0 -2 -1 -1 -1 -2 0 -1 -1 -1 -1 -1 -1 -2 -1 -1 -1 -1 0 -1 -1 -1 -1 -1 -1 -1 -1 -1 -1 -1 -2 -1 -1 -1 -1 -1 -1 0 -1 -1 -1 -1 -2 -1 -1 0 -1 -1 -2 0 -1 -1 -1 -1 -2 0 -1 -1 -2 0 -1 0 0 0 51 -26z"/>
  </g>
  <g>
   <path class="fil8" d="M1418 485l-394 0 0 -10 394 0 0 10zm45 -5l-52 23 0 -2 1 -1 1 -2 0 -1 1 -1 0 -2 1 -1 0 -2 0 -1 1 -1 0 -2 0 -1 0 -2 0 -1 0 -2 0 -1 0 -1 0 -2 0 -1 0 -2 0 -1 0 -1 -1 -2 0 -1 0 -2 -1 -1 0 -2 -1 -1 0 -1 -1 -2 -1 -1 0 -2 0 0 52 23z"/>
  </g>
  <path class="fil9" d="M261 100l0 -10 -5 0 0 9c0,13 -5,20 -11,20 -12,0 -12,-16 -12,-19l0 -49 25 0 0 -5 -25 0 0 -32 -4 0c-1,14 -6,33 -23,33l0 4 15 0 0 49c0,21 16,23 22,23 13,0 18,-12 18,-23l0 0z"/>
  <path id="1" class="fil9" d="M334 55c0,-6 -5,-11 -13,-11 -13,0 -19,12 -21,19l0 -19 -25 2 0 5c13,0 14,2 14,10l0 47c0,8 -2,8 -14,8l0 5 20 0c7,0 16,0 23,0l0 -5 -4 0c-13,0 -13,-2 -13,-8l0 -27c0,-18 7,-33 20,-33 1,0 2,0 2,0 0,0 -4,2 -4,7 0,5 4,7 8,7 3,0 7,-2 7,-7l0 0z"/>
  <path id="2" class="fil9" d="M423 106l0 -10 -4 0 0 10c0,10 -4,11 -6,11 -6,0 -7,-8 -7,-9l0 -35c0,-7 0,-14 -6,-20 -7,-7 -16,-10 -24,-10 -14,0 -26,8 -26,20 0,5 3,8 8,8 5,0 8,-4 8,-8 0,-2 -1,-8 -9,-8 5,-6 13,-8 19,-8 8,0 18,7 18,22l0 7c-9,0 -21,1 -32,6 -13,6 -17,15 -17,23 0,14 17,18 28,18 11,0 19,-7 22,-15 1,7 6,14 14,14 4,0 14,-2 14,-16l0 0zm-29 -9c0,16 -12,22 -20,22 -9,0 -16,-6 -16,-15 0,-9 7,-24 36,-25l0 18z"/>
  <path id="3" class="fil9" d="M520 121l0 -5c-9,0 -14,0 -14,-5l0 -34c0,-15 0,-20 -5,-27 -3,-3 -9,-6 -19,-6 -12,0 -21,8 -25,18l0 -18 -25 2 0 5c12,0 14,2 14,10l0 47c0,8 -2,8 -14,8l0 5 20 0 19 0 0 -5c-12,0 -13,0 -13,-8l0 -32c0,-18 12,-28 23,-28 11,0 13,9 13,19l0 41c0,8 -2,8 -14,8l0 5 20 0 20 0z"/>
  <path id="4" class="fil9" d="M586 99c0,-9 -5,-15 -7,-17 -6,-5 -13,-7 -20,-8 -10,-2 -21,-4 -21,-14 0,-7 4,-14 19,-14 19,0 20,16 20,21 1,2 3,2 3,2 2,0 2,-1 2,-4l0 -18c0,-3 0,-4 -2,-4 -1,0 -1,0 -4,2 0,1 -2,2 -3,3 -6,-5 -13,-5 -16,-5 -21,0 -28,12 -28,21 0,7 3,11 8,15 5,5 10,6 23,8 4,1 18,4 18,16 0,9 -6,16 -20,16 -15,0 -21,-10 -24,-25 -1,-2 -1,-3 -3,-3 -2,0 -2,2 -2,5l0 23c0,3 0,4 2,4 1,0 1,0 4,-3 1,-1 1,-1 4,-4 8,7 15,7 19,7 20,0 28,-12 28,-24l0 0z"/>
  <path id="5" class="fil9" d="M637 121l0 -5c-12,0 -14,0 -14,-8l0 -108 -25 2 0 5c12,0 14,2 14,10l0 91c0,8 -2,8 -14,8l0 5 19 0 20 0z"/>
  <path id="6" class="fil9" d="M725 106l0 -10 -4 0 0 10c0,10 -5,11 -7,11 -5,0 -6,-8 -6,-9l0 -35c0,-7 0,-14 -6,-20 -7,-7 -16,-10 -24,-10 -15,0 -27,8 -27,20 0,5 4,8 8,8 5,0 8,-4 8,-8 0,-2 0,-8 -9,-8 5,-6 14,-8 19,-8 9,0 19,7 19,22l0 7c-9,0 -21,1 -32,6 -13,6 -18,15 -18,23 0,14 17,18 28,18 12,0 20,-7 23,-15 1,7 5,14 14,14 3,0 14,-2 14,-16l0 0zm-29 -9c0,16 -13,22 -21,22 -8,0 -15,-6 -15,-15 0,-9 7,-24 36,-25l0 18z"/>
  <path id="7" class="fil9" d="M786 100l0 -10 -4 0 0 9c0,13 -6,20 -12,20 -12,0 -12,-16 -12,-19l0 -49 25 0 0 -5 -25 0 0 -32 -4 0c0,14 -6,33 -23,33l0 4 15 0 0 49c0,21 16,23 23,23 12,0 17,-12 17,-23l0 0z"/>
  <path id="8" class="fil9" d="M839 121l0 -5c-12,0 -12,-1 -12,-8l0 -64 -25 2 0 5c12,0 13,1 13,10l0 47c0,8 -2,8 -13,8l0 5 19 0c6,0 12,0 18,0zm-10 -105c0,-5 -4,-10 -9,-10 -6,0 -9,5 -9,10 0,4 4,9 9,9 6,0 9,-5 9,-9z"/>
  <path id="9" class="fil9" d="M927 84c0,-23 -18,-41 -39,-41 -22,0 -39,19 -39,41 0,22 18,39 39,39 21,0 39,-17 39,-39zm-15 -2c0,7 0,16 -4,24 -4,8 -11,13 -20,13 -7,0 -15,-4 -20,-12 -4,-8 -4,-18 -4,-25 0,-6 0,-16 4,-24 5,-8 13,-11 20,-11 8,0 15,4 20,11 4,8 4,18 4,24z"/>
  <path id="10" class="fil9" d="M1025 121l0 -5c-9,0 -13,0 -14,-5l0 -34c0,-15 0,-20 -5,-27 -2,-3 -8,-6 -18,-6 -13,0 -21,8 -26,18l0 -18 -25 2 0 5c12,0 14,2 14,10l0 47c0,8 -2,8 -14,8l0 5 20 0 20 0 0 -5c-12,0 -14,0 -14,-8l0 -32c0,-18 12,-28 24,-28 11,0 12,9 12,19l0 41c0,8 -1,8 -13,8l0 5 20 0 19 0z"/>
  <path id="11" class="fil9" d="M1130 121l0 -5c-12,0 -12,-1 -12,-8l0 -64 -25 2 0 5c12,0 13,1 13,10l0 47c0,8 -2,8 -13,8l0 5 19 0c6,0 12,0 18,0zm-10 -105c0,-5 -4,-10 -9,-10 -6,0 -9,5 -9,10 0,4 4,9 9,9 6,0 9,-5 9,-9z"/>
  <path id="12" class="fil9" d="M1229 121l0 -5c-9,0 -14,0 -14,-5l0 -34c0,-15 0,-20 -5,-27 -3,-3 -8,-6 -19,-6 -12,0 -20,8 -25,18l0 -18 -25 2 0 5c12,0 14,2 14,10l0 47c0,8 -2,8 -14,8l0 5 20 0 19 0 0 -5c-11,0 -13,0 -13,-8l0 -32c0,-18 12,-28 23,-28 11,0 13,9 13,19l0 41c0,8 -2,8 -13,8l0 5 19 0 20 0z"/>
  <path id="13" class="fil9" d="M409 281c0,-2 -2,-2 -4,-2 -10,0 -11,-2 -12,-5l-21 -56 29 -33 2 -2c4,-4 11,-12 24,-12 2,-1 4,-1 4,-4 0,-1 -2,-2 -3,-2 -5,0 -10,1 -15,1 -6,0 -12,-1 -18,-1 -1,0 -3,0 -3,3 0,2 1,3 2,3 1,0 6,0 6,5 0,1 0,3 -3,7l-26 29 -13 -34 -1 -2c0,-2 4,-5 10,-5 1,0 3,-1 3,-4 0,-1 -1,-2 -2,-2 -7,0 -14,1 -21,1 -6,0 -12,-1 -18,-1 -1,0 -3,0 -3,3 0,3 2,3 4,3 10,0 10,1 12,5l18 49 -37 41c-10,12 -20,13 -25,13 -2,0 -3,3 -3,3 0,1 1,2 3,2 4,0 10,0 15,0 6,0 12,0 18,0 1,0 3,0 3,-3 0,-2 -2,-2 -2,-2 -5,-1 -6,-3 -6,-5 0,-1 0,-3 1,-4 1,-1 1,-1 1,-1l0 -1 34 -38 15 42c0,0 1,1 1,2 0,2 -4,5 -10,5 -2,0 -3,1 -3,3 0,2 2,2 2,2 7,0 14,0 21,0 6,0 12,0 18,0 1,0 3,0 3,-3z"/>
  <path id="14" class="fil9" d="M474 250c0,-1 1,-5 1,-6 0,-2 -1,-2 -4,-2l-34 0c-3,0 -4,0 -4,2 -1,1 -2,5 -2,5 0,3 2,3 5,3l33 0c4,0 5,0 5,-2z"/>
  <path id="15" class="fil9" d="M571 284l0 -5c-12,0 -14,-1 -14,-10l0 -106 -25 2 0 6c12,0 14,1 14,9l0 38c-5,-6 -13,-11 -22,-11 -21,0 -39,17 -39,40 0,22 17,39 37,39 11,0 19,-6 23,-11l0 11 26 -2zm-26 -20c0,3 0,3 -2,6 -5,9 -13,12 -20,12 -8,0 -15,-4 -19,-11 -4,-7 -5,-17 -5,-24 0,-6 1,-17 6,-25 3,-5 10,-11 19,-11 6,0 14,3 19,11 2,3 2,3 2,6l0 36z"/>
  <path id="16" class="fil9" d="M619 284l0 -5c-12,0 -12,-1 -12,-8l0 -64 -25 2 0 6c12,0 13,1 13,9l0 47c0,8 -2,8 -13,8l0 5 19 0c6,0 12,0 18,0zm-10 -105c0,-5 -4,-9 -9,-9 -6,0 -9,5 -9,9 0,5 4,9 9,9 6,0 9,-5 9,-9z"/>
  <path id="17" class="fil9" d="M688 218c0,-6 -6,-11 -13,-11 -13,0 -19,12 -21,19l0 -19 -25 2 0 6c12,0 14,1 14,9l0 47c0,8 -2,8 -14,8l0 5 20 0c7,0 15,0 22,0l0 -5 -3 0c-13,0 -14,-2 -14,-8l0 -27c0,-17 8,-33 21,-33 1,0 2,0 2,0 -1,0 -4,3 -4,7 0,5 4,8 7,8 4,0 8,-3 8,-8l0 0z"/>
  <path id="18" class="fil9" d="M765 264c0,-2 -1,-2 -2,-2 -2,0 -2,1 -2,2 -6,18 -22,18 -24,18 -9,0 -16,-5 -20,-12 -5,-8 -5,-20 -5,-26l49 0c4,0 4,0 4,-4 0,-17 -9,-34 -31,-34 -20,0 -36,18 -36,40 0,23 18,40 38,40 21,0 29,-19 29,-22zm-11 -24l-42 0c1,-26 16,-30 22,-30 18,0 20,24 20,30z"/>
  <path id="19" class="fil9" d="M843 264c0,-2 -2,-2 -3,-2 -1,0 -1,1 -2,2 -5,16 -16,18 -23,18 -9,0 -24,-8 -24,-36 0,-28 14,-35 23,-35 2,0 13,0 19,6 -7,1 -8,6 -8,8 0,5 3,8 8,8 4,0 8,-3 8,-8 0,-12 -13,-19 -27,-19 -22,0 -38,19 -38,41 0,22 18,39 38,39 23,0 29,-21 29,-22z"/>
  <path id="20" class="fil9" d="M906 263l0 -10 -5 0 0 9c0,13 -5,20 -11,20 -12,0 -12,-16 -12,-19l0 -48 25 0 0 -6 -25 0 0 -32 -4 0c-1,14 -6,33 -23,34l0 4 15 0 0 48c0,21 16,23 22,23 13,0 18,-12 18,-23l0 0z"/>
  <path id="21" class="fil9" d="M959 284l0 -5c-12,0 -12,-1 -12,-8l0 -64 -25 2 0 6c12,0 13,1 13,9l0 47c0,8 -2,8 -14,8l0 5 20 0c6,0 12,0 18,0zm-10 -105c0,-5 -4,-9 -9,-9 -6,0 -9,5 -9,9 0,5 4,9 9,9 6,0 9,-5 9,-9z"/>
  <path id="22" class="fil9" d="M1046 247c0,-22 -17,-41 -38,-41 -22,0 -39,19 -39,41 0,23 18,39 39,39 21,0 38,-17 38,-39zm-14 -1c0,6 0,15 -4,23 -4,8 -11,13 -20,13 -8,0 -15,-4 -20,-12 -4,-7 -4,-18 -4,-24 0,-7 0,-17 4,-24 5,-8 13,-12 20,-12 7,0 15,4 19,11 5,8 5,18 5,25z"/>
  <path id="23" class="fil9" d="M1145 284l0 -5c-9,0 -14,0 -14,-5l0 -34c0,-15 0,-20 -5,-26 -3,-3 -8,-7 -18,-7 -13,0 -21,8 -26,19l0 -19 -25 2 0 6c12,0 14,1 14,9l0 47c0,8 -2,8 -14,8l0 5 20 0 19 0 0 -5c-11,0 -13,0 -13,-8l0 -32c0,-18 12,-28 23,-28 11,0 13,10 13,19l0 41c0,8 -2,8 -13,8l0 5 19 0 20 0z"/>
  <path class="fil9" d="M2301 55c0,-6 -5,-11 -13,-11 -12,0 -19,12 -21,19l0 -19 -24 2 0 5c12,0 13,2 13,10l0 47c0,8 -2,8 -13,8l0 5 19 0c7,0 16,0 23,0l0 -5 -4 0c-13,0 -13,-2 -13,-8l0 -27c0,-18 7,-33 20,-33 2,0 2,0 2,0 0,0 -4,2 -4,7 0,5 4,7 8,7 3,0 7,-2 7,-7l0 0z"/>
  <path id="1" class="fil9" d="M2388 84c0,-23 -17,-41 -38,-41 -22,0 -39,19 -39,41 0,22 18,39 39,39 21,0 38,-17 38,-39zm-14 -2c0,7 0,16 -4,24 -4,8 -12,13 -20,13 -8,0 -15,-4 -20,-12 -5,-8 -5,-18 -5,-25 0,-6 0,-16 5,-24 4,-8 13,-11 20,-11 7,0 15,4 19,11 5,8 5,18 5,24z"/>
  <path id="2" class="fil9" d="M2451 100l0 -10 -4 0 0 9c0,13 -5,20 -12,20 -11,0 -11,-16 -11,-19l0 -49 25 0 0 -5 -25 0 0 -32 -5 0c0,14 -5,33 -22,33l0 4 15 0 0 49c0,21 16,23 22,23 12,0 17,-12 17,-23l0 0z"/>
  <path id="3" class="fil9" d="M2546 106l0 -10 -5 0 0 10c0,10 -4,11 -6,11 -6,0 -7,-8 -7,-9l0 -35c0,-7 0,-14 -6,-20 -7,-7 -15,-10 -24,-10 -14,0 -26,8 -26,20 0,5 3,8 8,8 5,0 8,-4 8,-8 0,-2 -1,-8 -9,-8 5,-6 13,-8 19,-8 9,0 18,7 18,22l0 7c-8,0 -21,1 -32,6 -13,6 -17,15 -17,23 0,14 17,18 28,18 11,0 19,-7 23,-15 0,7 5,14 13,14 4,0 15,-2 15,-16l0 0zm-30 -9c0,16 -12,22 -20,22 -9,0 -16,-6 -16,-15 0,-9 8,-24 36,-25l0 18z"/>
  <path id="4" class="fil9" d="M2607 100l0 -10 -5 0 0 9c0,13 -5,20 -12,20 -11,0 -11,-16 -11,-19l0 -49 25 0 0 -5 -25 0 0 -32 -5 0c0,14 -5,33 -22,33l0 4 15 0 0 49c0,21 16,23 22,23 13,0 18,-12 18,-23l0 0z"/>
  <path id="5" class="fil9" d="M2660 121l0 -5c-12,0 -13,-1 -13,-8l0 -64 -24 2 0 5c11,0 13,1 13,10l0 47c0,8 -2,8 -14,8l0 5 19 0c7,0 13,0 19,0zm-10 -105c0,-5 -4,-10 -9,-10 -6,0 -10,5 -10,10 0,4 4,9 10,9 6,0 9,-5 9,-9z"/>
  <path id="6" class="fil9" d="M2747 84c0,-23 -17,-41 -38,-41 -22,0 -39,19 -39,41 0,22 18,39 38,39 22,0 39,-17 39,-39zm-14 -2c0,7 0,16 -4,24 -4,8 -12,13 -20,13 -8,0 -16,-4 -20,-12 -5,-8 -5,-18 -5,-25 0,-6 0,-16 5,-24 4,-8 12,-11 19,-11 8,0 16,4 20,11 5,8 5,18 5,24z"/>
  <path id="7" class="fil9" d="M2846 121l0 -5c-9,0 -14,0 -14,-5l0 -34c0,-15 0,-20 -5,-27 -3,-3 -9,-6 -19,-6 -12,0 -21,8 -26,18l0 -18 -24 2 0 5c12,0 14,2 14,10l0 47c0,8 -2,8 -14,8l0 5 20 0 19 0 0 -5c-12,0 -13,0 -13,-8l0 -32c0,-18 12,-28 23,-28 11,0 13,9 13,19l0 41c0,8 -2,8 -14,8l0 5 20 0 20 0z"/>
  <path id="8" class="fil9" d="M2992 106l0 -10 -5 0 0 10c0,10 -4,11 -6,11 -6,0 -6,-8 -6,-9l0 -35c0,-7 0,-14 -7,-20 -6,-7 -15,-10 -24,-10 -14,0 -26,8 -26,20 0,5 4,8 8,8 5,0 8,-4 8,-8 0,-2 -1,-8 -9,-8 5,-6 14,-8 19,-8 9,0 19,7 19,22l0 7c-9,0 -21,1 -32,6 -14,6 -18,15 -18,23 0,14 17,18 28,18 12,0 20,-7 23,-15 1,7 5,14 13,14 4,0 15,-2 15,-16l0 0zm-29 -9c0,16 -13,22 -21,22 -8,0 -15,-6 -15,-15 0,-9 7,-24 36,-25l0 18z"/>
  <path id="9" class="fil9" d="M3058 55c0,-6 -5,-11 -13,-11 -12,0 -19,12 -21,19l0 -19 -24 2 0 5c12,0 13,2 13,10l0 47c0,8 -2,8 -13,8l0 5 20 0c7,0 15,0 22,0l0 -5 -4 0c-13,0 -13,-2 -13,-8l0 -27c0,-18 7,-33 20,-33 2,0 2,0 2,0 0,0 -4,2 -4,7 0,5 4,7 8,7 3,0 7,-2 7,-7l0 0z"/>
  <path id="10" class="fil9" d="M3145 84c0,-23 -17,-41 -38,-41 -22,0 -39,19 -39,41 0,22 18,39 39,39 21,0 38,-17 38,-39zm-14 -2c0,7 0,16 -4,24 -4,8 -11,13 -20,13 -8,0 -15,-4 -20,-12 -4,-8 -4,-18 -4,-25 0,-6 0,-16 4,-24 4,-8 13,-11 20,-11 7,0 15,4 19,11 5,8 5,18 5,24z"/>
  <path id="11" class="fil9" d="M3244 121l0 -5c-12,0 -14,-1 -14,-10l0 -62 -25 2 0 5c12,0 13,2 13,10l0 31c0,15 -8,27 -21,27 -15,0 -15,-8 -15,-17l0 -58 -26 2 0 5c14,0 14,1 14,16l0 27c0,13 0,29 26,29 10,0 18,-5 23,-16l0 16 25 -2z"/>
  <path id="12" class="fil9" d="M3341 121l0 -5c-9,0 -14,0 -14,-5l0 -34c0,-15 0,-20 -5,-27 -3,-3 -8,-6 -18,-6 -13,0 -21,8 -26,18l0 -18 -25 2 0 5c12,0 14,2 14,10l0 47c0,8 -2,8 -14,8l0 5 20 0 19 0 0 -5c-11,0 -13,0 -13,-8l0 -32c0,-18 12,-28 23,-28 11,0 13,9 13,19l0 41c0,8 -2,8 -13,8l0 5 19 0 20 0z"/>
  <path id="13" class="fil9" d="M3437 121l0 -5c-13,0 -14,-1 -14,-10l0 -106 -25 2 0 5c12,0 13,2 13,10l0 38c-5,-6 -12,-11 -22,-11 -20,0 -38,17 -38,40 0,22 17,39 37,39 11,0 19,-6 23,-11l0 11 26 -2zm-26 -20c0,3 0,3 -2,6 -5,8 -13,12 -21,12 -7,0 -14,-4 -18,-11 -4,-7 -5,-17 -5,-24 0,-7 0,-17 5,-25 4,-5 11,-11 20,-11 6,0 14,2 19,10 2,3 2,4 2,7l0 36z"/>
  <path id="14" class="fil9" d="M2748 167c0,0 0,-2 -2,-2 -5,0 -9,1 -14,1 -5,0 -11,-1 -16,-1 -1,0 -3,0 -3,3 0,2 2,3 3,3 3,0 5,1 5,4 0,3 -4,7 -4,8l-39 46 -16 -52c-1,-2 -1,-2 -1,-2 0,-4 8,-4 10,-4 2,0 4,0 4,-4 0,-2 -2,-2 -3,-2 -6,0 -13,1 -20,1 -6,0 -12,-1 -18,-1 -1,0 -4,0 -4,3 0,3 2,3 5,3 8,0 10,1 11,5l18 58c1,1 1,2 1,3 0,1 -7,28 -8,32 -2,9 -2,10 -15,10 -3,0 -5,0 -5,3 0,2 2,2 3,2 6,0 13,0 20,0 7,0 14,0 21,0 1,0 3,0 3,-3 0,-2 -1,-2 -5,-2 -5,0 -10,0 -10,-3 0,-1 2,-10 4,-15l5 -21c1,-3 1,-4 2,-5l41 -50c8,-10 15,-14 23,-14 2,-1 4,-1 4,-4z"/>
  <path id="15" class="fil9" d="M2783 250c0,-1 1,-5 1,-6 0,-2 -2,-2 -4,-2l-34 0c-4,0 -4,0 -5,2 0,1 -1,5 -1,5 0,3 1,3 4,3l34 0c3,0 4,0 5,-2z"/>
  <path id="16" class="fil9" d="M2872 269l0 -10 -5 0 0 10c0,10 -4,11 -6,11 -6,0 -6,-8 -6,-9l0 -35c0,-7 0,-14 -7,-20 -7,-7 -15,-10 -24,-10 -14,0 -26,8 -26,20 0,5 4,8 8,8 5,0 8,-3 8,-8 0,-2 -1,-8 -9,-8 5,-6 13,-8 19,-8 9,0 19,7 19,22l0 7c-9,0 -22,1 -33,6 -13,6 -17,15 -17,23 0,14 17,18 28,18 11,0 19,-7 23,-15 0,7 5,14 13,14 4,0 15,-2 15,-16l0 0zm-29 -9c0,17 -13,22 -21,22 -8,0 -16,-6 -16,-14 0,-10 8,-24 37,-25l0 17z"/>
  <path id="17" class="fil9" d="M2965 284l0 -5c-10,0 -13,0 -17,-5l-23 -31c5,-6 12,-15 16,-19 5,-7 12,-9 21,-9l0 -6c-5,1 -10,1 -15,1 -5,0 -14,-1 -16,-1l0 6c3,0 5,2 5,5 0,3 -2,5 -3,6l-11 14 -13 -18c-2,-2 -2,-2 -2,-3 0,-3 3,-4 6,-4l0 -6 -19 1c-3,0 -12,0 -16,-1l0 6c12,0 12,0 20,10l18 23c-9,10 -9,11 -17,21 -8,10 -19,10 -22,10l0 5c4,0 10,0 14,0l17 0 0 -5c-4,-1 -5,-3 -5,-5 0,-4 5,-10 15,-23l14 18c1,2 3,5 3,6 0,1 -1,4 -6,4l0 5 19 0c5,0 12,0 17,0z"/>
  <path id="18" class="fil9" d="M3010 284l0 -5c-12,0 -12,-1 -12,-8l0 -64 -25 2 0 6c12,0 13,1 13,9l0 47c0,8 -2,8 -13,8l0 5 19 0c6,0 12,0 18,0zm-10 -105c0,-5 -4,-9 -9,-9 -6,0 -9,5 -9,9 0,5 4,9 9,9 6,0 9,-5 9,-9z"/>
  <path id="19" class="fil9" d="M3078 262c0,-9 -5,-14 -7,-17 -6,-5 -13,-7 -20,-8 -10,-2 -21,-4 -21,-14 0,-6 4,-13 19,-13 19,0 20,15 20,21 1,1 3,1 3,1 2,0 2,-1 2,-4l0 -18c0,-3 0,-4 -2,-4 -1,0 -1,0 -4,2 0,1 -2,3 -3,3 -6,-5 -13,-5 -16,-5 -21,0 -28,12 -28,22 0,6 3,11 8,15 5,4 10,5 23,8 4,0 18,3 18,16 0,9 -6,15 -20,15 -15,0 -21,-9 -24,-24 -1,-3 -1,-3 -3,-3 -2,0 -2,1 -2,4l0 23c0,3 0,4 2,4 1,0 1,0 4,-3 1,-1 1,-1 4,-4 8,7 15,7 19,7 20,0 28,-11 28,-24l0 0z"/>
  <path class="fil10" d="M2296 1319l836 -839c0,0 93,12 142,41 49,30 94,120 110,154 0,0 0,0 0,0l-1088 644z"/>
  <polyline class="fil3 str5" points="2287,1329 2869,1329 3132,1019 3132,480 "/>
  <line class="fil3 str3" x1="3370" y1="480" x2="3567" y2= "480" />
  <line class="fil3 str3" x1="3370" y1="1019" x2="3567" y2= "1019" />
  <line class="fil3 str3" x1="3530" y1="480" x2="3530" y2= "1019" />
  <line class="fil3 str3" x1="3486" y1="524" x2="3574" y2= "436" />
  <line class="fil3 str3" x1="3473" y1="1043" x2="3587" y2= "995" />
  <path class="fil0" d="M3632 713c0,-9 -12,-11 -18,-11 -12,0 -18,8 -21,12 -2,-9 -8,-12 -14,-12 -6,0 -10,4 -13,9 -3,7 -5,18 -5,18 0,1 1,1 2,1 3,0 3,0 4,-4 3,-12 6,-20 11,-20 5,0 5,5 5,7 0,2 -1,6 -1,8l-13 53c-1,1 -1,2 -1,2 0,2 2,5 5,5 5,0 7,-5 7,-7l11 -45c0,-1 8,-23 23,-23 1,0 6,0 10,2 -7,2 -7,8 -7,8 0,3 1,6 6,6 3,0 9,-2 9,-9z"/>
  <path id="1" class="fil0" d="M3673 792c0,-1 -1,-1 -2,-1 -1,0 -1,0 -1,2 -4,10 -7,18 -22,18l-13 0 45 -54c1,-1 1,-2 1,-2 0,-1 0,-1 -2,-1l-33 0c-2,0 -3,0 -3,2l-5 16c0,0 0,1 0,1 0,1 1,1 1,1 1,0 1,0 2,-2 2,-8 6,-15 20,-15l12 0 -45 54c-1,0 -1,1 -1,2 0,1 0,1 2,1l35 0c2,0 2,0 2,-2l6 -19c0,0 1,-1 1,-1z"/>
  <line class="fil3 str0" x1="2287" y1="1329" x2="3132" y2= "480" />
  <circle class="fil4 str1" cx="3132" cy="480" r="37"/>
  <circle class="fil4 str1" cx="3384" cy="675" r="37"/>
  <circle class="fil5 str2" cx="2287" cy="1329" r="37"/>
  <polygon class="fil6 str4" points="2395,1201 2287,1329 "/>
  <g>
   <path class="fil9" d="M2291 1114l0 215 -9 0 0 -215 9 0zm-4 -45l22 53 -1 -1 -2 -1 -1 0 -2 -1 -1 0 -1 -1 -2 0 -1 0 -2 -1 -1 0 -1 0 -2 0 -1 -1 -2 0 -1 0 -1 0 -2 0 -1 0 -2 0 -1 1 -2 0 -1 0 -1 0 -2 1 -1 0 -2 0 -1 1 -1 0 -2 1 -1 0 -2 1 -1 1 0 0 23 -53z"/>
  </g>
  <g>
   <path class="fil0" d="M2469 1333l-182 0 0 -9 182 0 0 9zm45 -4l-52 22 0 -1 1 -2 1 -1 0 -1 1 -2 0 -1 1 -2 0 -1 0 -2 1 -1 0 -1 0 -2 0 -1 0 -2 0 -1 0 -1 0 -2 0 -1 0 -2 0 -1 0 -1 0 -2 -1 -1 0 -2 0 -1 -1 -2 0 -1 -1 -1 0 -2 -1 -1 -1 -2 0 -1 0 0 52 23z"/>
  </g>
  <g>
   <path class="fil9" d="M2420 1180l-130 152 -7 -7 129 -152 8 7zm25 -38l-17 55 0 -1 -1 -2 -1 -1 0 -2 -1 -1 -1 -1 -1 -1 -1 -2 0 -1 -1 -1 -1 -1 -1 -1 -1 -1 -1 -1 -1 -1 -1 -1 -1 -1 -1 -1 -2 -1 -1 0 -1 -1 -1 -1 -1 -1 -2 0 -1 -1 -1 0 -2 -1 -1 -1 -2 0 -1 -1 -2 0 -1 0 0 0 51 -26z"/>
  </g>
  <g>
   <path class="fil8" d="M3277 517l-6 9 0 0 -3 -3 -3 -1 -4 -2 -4 -2 -3 -2 -4 -2 -4 -1 -4 -2 -4 -2 -4 -1 -4 -1 -5 -2 -4 -1 -4 -1 -5 -2 -4 -1 -5 -1 -4 -1 -5 -1 -5 -1 -4 -1 -5 -1 -5 -1 -5 -1 -4 -1 -5 -1 -5 -1 -5 -1 -5 -1 -5 0 -5 -1 -5 -1 2 -10 5 1 5 1 5 1 5 1 5 1 4 1 5 0 5 1 5 1 5 1 5 1 4 1 5 1 5 1 5 2 4 1 5 1 4 1 5 2 4 1 5 1 4 2 4 1 4 2 5 2 4 1 4 2 4 2 3 2 4 2 4 2 4 2 0 0zm80 100l-8 4 -2 -3 -2 -4 -2 -3 -2 -4 -2 -3 -2 -3 -2 -4 -2 -3 -2 -4 -2 -3 -3 -3 -2 -3 -2 -4 -2 -3 -2 -3 -3 -3 -2 -3 -2 -3 -3 -3 -2 -3 -3 -3 -2 -3 -3 -3 -3 -2 -2 -3 -3 -3 -3 -2 -3 -2 -3 -3 -3 -2 -3 -2 -4 -2 6 -9 3 3 3 2 4 2 3 3 3 3 3 2 3 3 3 3 3 3 3 3 3 2 2 4 3 3 2 3 3 3 2 3 3 3 2 4 2 3 2 3 3 4 2 3 2 3 2 4 2 3 2 4 2 3 2 4 2 3 2 4 2 3 2 4zm18 41l-46 -35 2 0 2 0 1 0 2 0 1 0 2 -1 1 0 1 0 2 -1 1 0 2 -1 1 0 1 -1 1 -1 2 0 1 -1 1 -1 1 0 2 -1 1 -1 1 -1 1 -1 1 -1 1 -1 1 -1 1 -1 1 -1 1 -1 1 -1 1 -1 1 -2 1 -1 0 0 6 57z"/>
  </g>
  <g>
   <path class="fil2" d="M2560 1085l-5 8 0 0 0 0 -1 -1 0 0 -1 0 -1 -1 0 0 -1 0 0 0 -1 -1 -1 0 0 0 -1 0 -1 0 -1 -1 0 0 -1 0 -1 0 0 0 -1 -1 -1 0 -1 0 -1 0 0 0 -1 0 -1 -1 -1 0 -1 0 -1 0 0 0 -1 0 -1 -1 -1 0 2 -9 0 0 1 0 1 0 1 0 1 1 1 0 1 0 1 0 0 0 1 0 1 1 1 0 1 0 1 0 1 0 0 1 1 0 1 0 1 0 1 1 1 0 0 0 1 0 1 1 1 0 1 0 0 1 1 0 1 0 1 1 1 0 0 1 0 0zm16 19l-9 4 0 0 0 -1 -1 0 0 -1 0 -1 -1 0 0 -1 0 0 -1 -1 0 -1 0 0 -1 -1 0 0 -1 -1 0 0 0 -1 -1 0 0 -1 0 0 -1 -1 0 0 -1 0 0 -1 0 0 -1 -1 0 0 -1 0 0 -1 -1 0 0 0 0 -1 -1 0 5 -8 1 0 1 1 0 0 1 1 1 0 0 1 1 0 0 1 1 0 1 1 0 1 1 0 0 1 1 0 0 1 1 1 0 0 0 1 1 0 0 1 1 1 0 0 0 1 1 1 0 0 1 1 0 0 0 1 1 1 0 0 0 1 1 1zm18 41l-46 -35 2 0 1 0 2 0 1 0 2 0 1 -1 2 0 1 0 1 -1 2 0 1 -1 1 0 2 -1 1 -1 1 0 2 -1 1 -1 1 0 1 -1 1 -1 1 -1 2 -1 1 -1 1 -1 1 -1 1 -1 1 -1 1 -1 1 -1 1 -1 1 -2 0 -1 0 0 7 57z"/>
  </g>
  <g>
   <path class="fil2" d="M2658 1010l-5 8 0 0 -1 -1 -1 0 -1 -1 -1 0 -1 -1 -1 0 -1 -1 -1 0 -1 -1 -2 0 -1 0 -1 -1 -1 0 -2 -1 -1 0 -1 0 -2 -1 -1 0 -1 0 -2 -1 -1 0 -2 0 -1 0 -1 -1 -2 0 -1 0 -2 -1 -1 0 -2 0 -1 0 -2 -1 -1 0 1 -9 2 0 1 0 2 0 1 1 2 0 1 0 2 0 1 1 2 0 1 0 2 1 1 0 2 0 1 1 2 0 1 0 2 1 1 0 1 1 2 0 1 0 2 1 1 0 1 1 2 0 1 1 1 1 1 0 2 1 1 0 1 1 1 1 0 0zm26 31l-9 5 0 -1 -1 -1 0 -1 -1 -1 -1 -1 0 -1 -1 -1 0 -1 -1 -1 -1 -1 0 -1 -1 -1 -1 -1 0 -1 -1 -1 -1 -1 0 -1 -1 -1 -1 -1 0 0 -1 -1 -1 -1 0 -1 -1 -1 -1 0 -1 -1 -1 -1 0 0 -1 -1 -1 -1 -1 0 -1 -1 5 -8 1 1 1 0 2 1 1 1 1 1 1 1 1 1 1 0 0 1 1 1 1 1 1 1 1 1 1 1 1 1 0 1 1 1 1 1 0 1 1 1 1 1 1 1 0 2 1 1 0 1 1 1 1 1 0 1 1 1 1 1 0 1 1 1zm18 42l-46 -35 2 0 1 0 2 0 1 -1 2 0 1 0 2 -1 1 0 1 0 2 -1 1 0 1 -1 2 0 1 -1 1 -1 2 0 1 -1 1 -1 1 -1 1 0 1 -1 2 -1 1 -1 1 -1 1 -1 1 -1 1 -1 1 -1 1 -2 1 -1 1 -1 0 -1 0 0 7 57z"/>
  </g>
  <g>
   <path class="fil2" d="M2755 935l-5 8 0 0 -1 -1 -2 -1 -1 0 -2 -1 -1 -1 -2 -1 -1 0 -2 -1 -2 -1 -1 0 -2 -1 -2 0 -2 -1 -1 0 -2 -1 -2 -1 -2 0 -2 0 -2 -1 -2 0 -2 -1 -2 0 -2 -1 -2 0 -2 0 -2 -1 -2 0 -2 -1 -2 0 -2 0 -2 -1 -2 0 1 -10 2 1 2 0 3 1 2 0 2 0 2 1 2 0 2 0 2 1 2 0 2 1 2 0 2 1 2 0 2 1 2 0 2 1 2 0 2 1 2 0 2 1 2 1 2 0 2 1 1 1 2 0 2 1 2 1 1 1 2 1 2 1 1 1 0 0zm35 43l-8 5 -1 -2 -1 -1 0 -2 -1 -1 -1 -2 -1 -1 -1 -2 -1 -1 -1 -1 0 -2 -1 -1 -1 -2 -1 -1 -1 -1 -1 -2 -1 -1 -1 -1 -1 -1 -1 -2 -1 -1 -1 -1 -1 -1 -1 -1 -1 -1 -1 -1 -1 -1 -2 -1 -1 -1 -1 -1 -1 -1 -2 -1 -1 -1 5 -8 2 1 1 1 2 1 1 1 2 1 1 1 1 2 2 1 1 1 1 1 1 2 1 1 2 1 1 2 1 1 1 1 1 2 1 1 1 2 1 1 1 2 1 1 1 1 1 2 0 1 1 2 1 1 1 2 1 1 1 2 1 1 0 2zm18 41l-45 -34 1 0 2 -1 1 0 2 0 1 0 2 0 1 -1 2 0 1 -1 1 0 2 -1 1 0 1 -1 2 0 1 -1 1 -1 1 0 2 -1 1 -1 1 -1 1 -1 1 0 1 -1 1 -1 1 -1 1 -1 1 -2 1 -1 1 -1 1 -1 1 -1 1 -2 0 0 6 57z"/>
  </g>
  <g>
   <path class="fil2" d="M2880 839l-6 8 0 0 -1 -1 -2 -1 -2 -1 -3 -1 -2 -1 -2 -1 -2 -1 -2 -1 -3 -1 -2 -1 -2 -1 -3 -1 -2 0 -3 -1 -2 -1 -3 -1 -3 0 -2 -1 -3 0 -3 -1 -2 -1 -3 0 -3 -1 -3 0 -2 -1 -3 0 -3 -1 -3 0 -3 -1 -3 0 -2 -1 -3 0 1 -10 3 1 3 0 3 1 3 0 3 1 3 0 2 1 3 0 3 1 3 0 3 1 3 0 2 1 3 1 3 0 2 1 3 1 3 1 2 0 3 1 3 1 2 1 3 1 2 1 3 1 2 1 2 1 3 1 2 1 2 1 3 1 2 2 0 0zm47 58l-8 5 -1 -2 -1 -2 -2 -2 -1 -2 -1 -2 -1 -2 -1 -2 -1 -2 -2 -2 -1 -2 -1 -2 -1 -2 -2 -1 -1 -2 -1 -2 -1 -2 -2 -2 -1 -1 -1 -2 -2 -2 -1 -1 -2 -2 -1 -2 -2 -1 -1 -2 -2 -1 -2 -2 -1 -1 -2 -1 -2 -2 -2 -1 -2 -1 6 -8 2 1 2 2 2 1 2 1 2 2 1 2 2 1 2 2 2 2 1 1 2 2 1 2 2 2 1 2 2 1 1 2 2 2 1 2 1 2 2 2 1 2 1 2 2 2 1 2 1 2 1 2 1 2 2 2 1 2 1 2 1 2 1 2zm18 42l-45 -35 1 0 2 0 1 0 2 -1 1 0 2 0 1 0 1 -1 2 0 1 -1 2 0 1 -1 1 0 2 -1 1 -1 1 0 1 -1 1 -1 2 0 1 -1 1 -1 1 -1 1 -1 1 -1 1 -1 1 -1 1 -1 1 -1 1 -2 1 -1 1 -1 1 -1 0 0 6 57z"/>
  </g>
  <g>
   <path class="fil2" d="M2997 741l-5 8 0 0 -2 -1 -3 -2 -2 -1 -2 -1 -3 -2 -3 -1 -2 -1 -3 -1 -3 -1 -3 -1 -2 -1 -3 -1 -3 -1 -3 -1 -3 -1 -3 0 -4 -1 -3 -1 -3 -1 -3 0 -3 -1 -4 -1 -3 0 -3 -1 -3 -1 -4 0 -3 -1 -4 -1 -3 0 -3 -1 -4 0 -3 -1 2 -9 3 0 3 1 4 0 3 1 4 1 3 0 3 1 4 0 3 1 3 1 4 0 3 1 3 1 4 1 3 0 3 1 3 1 3 1 3 1 4 1 3 1 3 1 3 1 3 1 2 1 3 1 3 2 3 1 3 1 2 2 3 1 2 2 0 0zm57 69l-9 5 -1 -3 -2 -2 -1 -2 -1 -3 -2 -2 -1 -3 -2 -2 -1 -2 -1 -3 -2 -2 -1 -2 -2 -2 -1 -3 -2 -2 -1 -2 -2 -2 -1 -2 -2 -2 -2 -2 -1 -2 -2 -2 -2 -2 -2 -2 -1 -2 -2 -2 -2 -1 -2 -2 -2 -2 -2 -1 -2 -2 -3 -2 -2 -1 5 -8 3 1 2 2 3 2 2 2 2 1 2 2 2 2 2 2 2 2 2 2 2 2 2 2 2 2 2 3 1 2 2 2 2 2 1 3 2 2 1 2 2 3 1 2 2 2 1 3 2 2 1 2 2 3 1 2 1 3 2 2 1 3 2 2zm18 41l-46 -34 1 0 2 0 1 -1 2 0 1 0 2 0 1 -1 2 0 1 -1 2 0 1 0 1 -1 2 -1 1 0 1 -1 1 0 2 -1 1 -1 1 -1 1 -1 1 0 1 -1 1 -1 1 -1 1 -1 2 -1 1 -1 0 -2 1 -1 1 -1 1 -1 1 -2 0 0 7 57z"/>
  </g>
  <g>
   <path class="fil2" d="M3126 646l-5 8 0 0 -3 -1 -3 -2 -3 -2 -3 -1 -4 -2 -3 -2 -3 -1 -4 -1 -3 -2 -4 -1 -4 -1 -3 -1 -4 -2 -4 -1 -4 -1 -4 -1 -4 -1 -4 -1 -4 -1 -4 -1 -4 -1 -4 0 -4 -1 -5 -1 -4 -1 -4 -1 -4 -1 -5 0 -4 -1 -4 -1 -5 -1 -4 0 2 -10 4 1 4 1 5 0 4 1 4 1 5 1 4 0 4 1 4 1 5 1 4 1 4 1 4 1 4 1 5 1 4 1 4 1 4 1 4 1 3 1 4 2 4 1 4 1 4 2 3 1 4 2 3 1 4 2 3 2 4 1 3 2 3 2 0 0zm71 88l-8 4 -2 -3 -2 -3 -1 -3 -2 -3 -2 -3 -2 -3 -1 -3 -2 -3 -2 -3 -2 -3 -2 -3 -2 -2 -2 -3 -1 -3 -2 -3 -2 -3 -2 -2 -3 -3 -2 -3 -2 -2 -2 -3 -2 -2 -3 -3 -2 -2 -2 -2 -3 -2 -2 -3 -3 -2 -3 -2 -2 -2 -3 -2 -3 -2 5 -8 3 2 3 2 3 2 3 3 3 2 3 2 2 3 3 2 2 3 3 2 2 3 3 3 2 2 2 3 2 3 2 3 2 2 2 3 2 3 2 3 2 3 2 3 2 3 2 3 2 3 2 3 1 3 2 3 2 3 2 3 1 4 2 3zm18 41l-45 -35 1 0 2 0 1 0 2 0 1 0 2 -1 1 0 1 0 2 -1 1 0 2 -1 1 0 1 -1 1 0 2 -1 1 -1 1 0 1 -1 2 -1 1 -1 1 -1 1 -1 1 -1 1 -1 1 -1 1 -1 1 -1 1 -1 1 -1 1 -1 1 -2 1 -1 0 0 6 57z"/>
  </g>
  <line class="fil3 str0" x1="2287" y1="1324" x2="3384" y2= "675" />
  <g>
   <path class="fil7" d="M2434 1286l-8 -6 0 1 6 -12 4 -11 2 -11 2 -10 0 -9 0 -8 -2 -8 -2 -7 -4 -6 -4 -6 -4 -5 -5 -4 -6 -4 -6 -4 -7 -2 -7 -3 -7 -1 -7 -1 -7 -1 -8 0 -7 1 -7 1 -7 2 -6 2 -6 3 -5 3 -5 4 -5 4 -3 5 -3 5 -2 6 -1 6 -10 -1 2 -8 2 -7 4 -6 4 -6 5 -5 6 -5 6 -4 7 -3 8 -2 7 -2 8 -2 8 0 8 0 8 0 8 1 8 2 8 3 7 3 7 4 7 4 6 5 5 6 5 7 3 8 3 8 2 9 1 9 -1 10 -1 11 -3 11 -5 12 -5 13 -1 1zm1 -1l0 1 -1 0 1 -1zm-13 2l4 -7 8 6 -4 6 -8 -5zm-23 39l13 -56 1 1 1 2 0 1 1 1 1 1 1 2 1 1 1 1 1 1 1 1 1 1 1 1 1 1 1 1 1 1 1 1 1 1 1 0 2 1 1 1 1 0 1 1 2 1 1 0 1 1 2 0 1 1 2 0 1 0 2 1 1 0 2 0 0 0 -50 30z"/>
  </g>
  <line class="fil3 str6" x1="3132" y1="548" x2="3132" y2= "1232" />
  <line class="fil3 str6" x1="3384" y1="741" x2="3384" y2= "1232" />
  <line class="fil3 str6" x1="3086" y1="1196" x2="3439" y2= "1196" />
  <line class="fil3 str6" x1="3106" y1="1222" x2="3159" y2= "1169" />
  <line class="fil3 str6" x1="3358" y1="1222" x2="3411" y2= "1169" />
  <path class="fil8" d="M3215 1274c0,-9 -11,-11 -17,-11 -12,0 -18,9 -21,13 -2,-9 -8,-13 -14,-13 -7,0 -10,4 -13,9 -3,7 -5,18 -5,18 0,2 1,2 2,2 2,0 3,0 4,-4 3,-12 6,-21 11,-21 5,0 5,5 5,7 0,3 -1,6 -1,9l-13 52c-1,1 -1,2 -1,3 0,2 2,4 5,4 5,0 6,-5 7,-6l11 -46c0,0 8,-23 23,-23 1,0 6,0 9,3 -6,1 -6,7 -6,8 0,2 1,5 6,5 3,0 8,-2 8,-9z"/>
  <path id="1" class="fil8" d="M3419 1371c0,-2 -1,-2 -4,-2 -9,0 -9,-1 -9,-3 0,-1 1,-2 1,-3l24 -95c0,-1 0,-3 0,-3 0,-1 -1,-2 -2,-2 -2,0 -8,7 -11,11 -2,-5 -6,-11 -15,-11 -19,0 -40,27 -40,52 0,15 8,27 22,27 7,0 13,-4 18,-9 -3,14 -3,14 -7,27 -2,8 -2,9 -13,9 -2,0 -4,0 -4,3 0,2 1,2 2,2 6,0 12,0 18,0 5,0 12,0 17,0 1,0 3,0 3,-3zm-12 -52c-2,6 -12,19 -22,19 -8,0 -10,-10 -10,-15 0,-9 6,-29 9,-37 4,-10 12,-19 19,-19 2,0 6,0 9,5 2,3 3,8 3,11 0,1 0,2 0,3l-8 33z"/>
  <path id="2" class="fil8" d="M3257 1353c0,-1 -1,-1 -2,-1 -1,0 -1,0 -2,2 -3,10 -6,18 -21,18l-13 0 45 -53c1,-1 1,-2 1,-3 0,0 0,0 -2,0l-34 0c-1,0 -2,0 -2,1l-5 16c0,0 0,1 0,1 0,1 1,1 1,1 1,0 1,0 2,-1 2,-8 6,-16 20,-16l12 0 -45 54c-1,1 -1,1 -1,3 0,0 0,0 2,0l35 0c2,0 2,0 2,-1l6 -20c0,0 1,-1 1,-1z"/>
  <path id="3" class="fil8" d="M3494 1337c0,-15 -9,-23 -20,-23 -18,0 -36,20 -36,41 0,13 8,22 20,22 17,0 36,-19 36,-40zm-7 -4c0,7 -3,20 -9,29 -6,9 -14,13 -20,13 -8,0 -13,-7 -13,-17 0,-6 2,-18 9,-29 4,-7 12,-13 19,-13 9,0 14,7 14,17zm-6 9c0,-1 1,-1 1,-2 0,0 -1,-1 -2,-1 -1,0 -2,3 -2,3l-23 0c0,0 0,-1 0,-2 0,0 0,-1 -1,-1 -1,0 -1,1 -2,2l-2 8c0,1 0,1 0,1 0,1 0,1 1,1 2,0 2,-2 2,-2l24 0c0,0 -1,1 -1,1 0,1 1,1 2,1 1,0 1,0 1,-1l2 -8z"/>
  <path id="4" class="fil8" d="M3568 1317c0,0 0,-1 -1,-1 -2,0 -4,0 -7,0 -2,0 -5,0 -8,0 0,0 -1,0 -1,1 0,1 1,1 1,1 2,0 3,1 3,2 0,2 -2,4 -2,5l-20 23 -8 -26c0,-1 0,-2 0,-2 0,-2 4,-2 5,-2 1,0 2,0 2,-1 0,-1 -1,-1 -2,-1 -3,0 -6,0 -10,0 -3,0 -6,0 -9,0 0,0 -2,0 -2,1 0,1 1,1 3,1 4,0 5,1 5,3l9 29c1,1 1,1 1,1 0,1 -4,15 -4,16 -1,5 -2,6 -8,6 -1,0 -2,0 -2,1 0,1 1,1 1,1 3,0 7,0 10,0 4,0 7,0 11,0 0,0 1,0 1,-1 0,-1 0,-1 -2,-1 -3,0 -5,0 -5,-2 0,-1 1,-5 1,-7l3 -11c1,-2 1,-2 1,-2l21 -25c4,-5 7,-7 11,-8 1,0 2,0 2,-1z"/>
  <path id="5" class="fil8" d="M3306 1282c-2,2 -3,2 -5,2 -2,0 -3,0 -5,-2 -1,-1 -2,-3 -2,-4 0,-2 1,-4 2,-5 2,-1 3,-2 5,-2 2,0 3,1 5,2 1,1 2,3 2,5 0,1 -1,3 -2,4z"/>
  <path class="fil7" d="M2163 1451c0,-2 -2,-2 -4,-2 -9,0 -9,-1 -9,-3 0,-1 0,-2 0,-3l24 -95c0,-1 1,-2 1,-2 0,-2 -2,-2 -2,-2 -2,0 -9,6 -11,11 -2,-5 -7,-12 -15,-12 -20,0 -40,27 -40,52 0,15 8,28 21,28 7,0 13,-5 18,-10 -3,14 -3,14 -6,28 -2,7 -3,8 -14,8 -2,0 -4,0 -4,3 0,2 1,3 2,3 6,0 12,-1 18,-1 6,0 12,1 17,1 1,0 4,0 4,-4zm-13 -52c-2,6 -12,20 -22,20 -8,0 -9,-11 -9,-16 0,-9 5,-29 8,-36 5,-11 13,-20 20,-20 1,0 5,0 8,5 2,3 4,8 4,12 0,0 0,1 -1,2l-8 33z"/>
  <path id="1" class="fil7" d="M2237 1417c0,-15 -9,-23 -20,-23 -18,0 -36,21 -36,41 0,13 8,22 20,22 18,0 36,-19 36,-40zm-7 -3c0,6 -3,19 -9,29 -6,8 -13,12 -19,12 -8,0 -14,-6 -14,-17 0,-5 2,-18 9,-29 5,-7 12,-13 20,-13 8,0 13,7 13,18zm-5 8c0,-1 0,-1 0,-1 0,-1 0,-1 -1,-1 -2,0 -2,3 -2,3l-24 0c0,-1 1,-2 1,-2 0,-1 -1,-1 -2,-1 -1,0 -1,0 -1,1l-2 9c-1,0 -1,0 -1,1 0,0 0,1 2,1 1,0 2,-3 2,-3l23 0c0,0 0,1 0,2 0,0 0,1 1,1 1,0 1,-1 2,-2l2 -8z"/>
  <path id="2" class="fil7" d="M2311 1397c0,0 0,-1 -1,-1 -2,0 -4,0 -6,0 -3,0 -6,0 -8,0 -1,0 -2,0 -2,2 0,1 1,1 1,1 2,0 3,0 3,2 0,1 -2,3 -2,4l-19 23 -9 -26c0,-1 0,-1 0,-1 0,-2 4,-2 5,-2 1,0 2,0 2,-2 0,-1 -1,-1 -1,-1 -4,0 -7,0 -11,0 -2,0 -6,0 -9,0 0,0 -1,0 -1,2 0,1 1,1 2,1 4,0 5,0 5,2l10 29c0,1 0,1 0,2 0,0 -4,14 -4,16 -1,4 -1,5 -8,5 -1,0 -2,0 -2,1 0,2 1,2 1,2 4,0 7,-1 10,-1 4,0 8,1 11,1 0,0 2,0 2,-2 0,-1 -1,-1 -3,-1 -3,0 -5,0 -5,-2 0,0 1,-5 2,-7l2 -11c1,-1 1,-1 2,-2l20 -25c4,-5 8,-7 12,-7 1,0 1,0 1,-2z"/>
  <path class="fil9" d="M4313 55c0,-6 -5,-11 -13,-11 -13,0 -19,12 -21,19l0 -19 -25 2 0 5c13,0 14,2 14,10l0 47c0,8 -2,8 -14,8l0 5 20 0c7,0 16,0 22,0l0 -5 -3 0c-13,0 -13,-2 -13,-8l0 -27c0,-18 7,-33 20,-33 1,0 2,0 2,0 0,0 -4,2 -4,7 0,5 4,7 8,7 3,0 7,-2 7,-7l0 0z"/>
  <path id="1" class="fil9" d="M4400 84c0,-23 -17,-41 -38,-41 -22,0 -39,19 -39,41 0,22 18,39 38,39 22,0 39,-17 39,-39zm-14 -2c0,7 0,16 -4,24 -4,8 -12,13 -20,13 -8,0 -16,-4 -20,-12 -5,-8 -5,-18 -5,-25 0,-6 0,-16 5,-24 4,-8 12,-11 19,-11 8,0 16,4 20,11 5,8 5,18 5,24z"/>
  <path id="2" class="fil9" d="M4463 100l0 -10 -4 0 0 9c0,13 -5,20 -12,20 -12,0 -12,-16 -12,-19l0 -49 25 0 0 -5 -25 0 0 -32 -4 0c0,14 -5,33 -22,33l0 4 14 0 0 49c0,21 17,23 23,23 12,0 17,-12 17,-23l0 0z"/>
  <path id="3" class="fil9" d="M4557 106l0 -10 -4 0 0 10c0,10 -4,11 -6,11 -6,0 -7,-8 -7,-9l0 -35c0,-7 0,-14 -6,-20 -7,-7 -15,-10 -24,-10 -14,0 -26,8 -26,20 0,5 3,8 8,8 5,0 8,-4 8,-8 0,-2 -1,-8 -9,-8 5,-6 13,-8 19,-8 8,0 18,7 18,22l0 7c-9,0 -21,1 -32,6 -13,6 -17,15 -17,23 0,14 17,18 28,18 11,0 19,-7 23,-15 0,7 5,14 13,14 4,0 14,-2 14,-16l0 0zm-29 -9c0,16 -12,22 -20,22 -9,0 -16,-6 -16,-15 0,-9 8,-24 36,-25l0 18z"/>
  <path id="4" class="fil9" d="M4618 100l0 -10 -4 0 0 9c0,13 -5,20 -12,20 -11,0 -11,-16 -11,-19l0 -49 25 0 0 -5 -25 0 0 -32 -5 0c0,14 -5,33 -22,33l0 4 15 0 0 49c0,21 16,23 22,23 13,0 17,-12 17,-23l0 0z"/>
  <path id="5" class="fil9" d="M4671 121l0 -5c-11,0 -12,-1 -12,-8l0 -64 -24 2 0 5c11,0 13,1 13,10l0 47c0,8 -2,8 -14,8l0 5 19 0c6,0 13,0 18,0zm-9 -105c0,-5 -4,-10 -9,-10 -6,0 -10,5 -10,10 0,4 4,9 9,9 6,0 10,-5 10,-9z"/>
  <path id="6" class="fil9" d="M4759 84c0,-23 -17,-41 -38,-41 -22,0 -39,19 -39,41 0,22 18,39 38,39 21,0 39,-17 39,-39zm-14 -2c0,7 0,16 -4,24 -4,8 -12,13 -20,13 -8,0 -16,-4 -20,-12 -5,-8 -5,-18 -5,-25 0,-6 0,-16 4,-24 5,-8 13,-11 20,-11 8,0 16,4 20,11 5,8 5,18 5,24z"/>
  <path id="7" class="fil9" d="M4858 121l0 -5c-10,0 -14,0 -14,-5l0 -34c0,-15 0,-20 -5,-27 -3,-3 -9,-6 -19,-6 -13,0 -21,8 -26,18l0 -18 -24 2 0 5c12,0 13,2 13,10l0 47c0,8 -2,8 -13,8l0 5 19 0 20 0 0 -5c-12,0 -14,0 -14,-8l0 -32c0,-18 13,-28 24,-28 11,0 13,9 13,19l0 41c0,8 -2,8 -14,8l0 5 20 0 20 0z"/>
  <path id="8" class="fil9" d="M5004 106l0 -10 -5 0 0 10c0,10 -4,11 -6,11 -6,0 -6,-8 -6,-9l0 -35c0,-7 0,-14 -7,-20 -7,-7 -15,-10 -24,-10 -14,0 -26,8 -26,20 0,5 3,8 8,8 5,0 8,-4 8,-8 0,-2 -1,-8 -9,-8 5,-6 13,-8 19,-8 9,0 19,7 19,22l0 7c-9,0 -22,1 -33,6 -13,6 -17,15 -17,23 0,14 17,18 28,18 11,0 19,-7 23,-15 0,7 5,14 13,14 4,0 15,-2 15,-16l0 0zm-29 -9c0,16 -13,22 -21,22 -8,0 -16,-6 -16,-15 0,-9 8,-24 37,-25l0 18z"/>
  <path id="9" class="fil9" d="M5070 55c0,-6 -5,-11 -13,-11 -12,0 -19,12 -21,19l0 -19 -24 2 0 5c12,0 13,2 13,10l0 47c0,8 -2,8 -13,8l0 5 19 0c7,0 16,0 23,0l0 -5 -4 0c-13,0 -13,-2 -13,-8l0 -27c0,-18 7,-33 20,-33 1,0 2,0 2,0 0,0 -4,2 -4,7 0,5 4,7 8,7 3,0 7,-2 7,-7l0 0z"/>
  <path id="10" class="fil9" d="M5157 84c0,-23 -17,-41 -38,-41 -22,0 -39,19 -39,41 0,22 18,39 39,39 21,0 38,-17 38,-39zm-14 -2c0,7 0,16 -4,24 -4,8 -12,13 -20,13 -8,0 -15,-4 -20,-12 -5,-8 -5,-18 -5,-25 0,-6 0,-16 5,-24 4,-8 13,-11 20,-11 7,0 15,4 19,11 5,8 5,18 5,24z"/>
  <path id="11" class="fil9" d="M5256 121l0 -5c-12,0 -14,-1 -14,-10l0 -62 -26 2 0 5c13,0 14,2 14,10l0 31c0,15 -8,27 -21,27 -15,0 -15,-8 -15,-17l0 -58 -26 2 0 5c14,0 14,1 14,16l0 27c0,13 0,29 26,29 10,0 18,-5 23,-16l0 16 25 -2z"/>
  <path id="12" class="fil9" d="M5353 121l0 -5c-9,0 -14,0 -14,-5l0 -34c0,-15 0,-20 -5,-27 -3,-3 -8,-6 -19,-6 -12,0 -21,8 -25,18l0 -18 -25 2 0 5c12,0 14,2 14,10l0 47c0,8 -2,8 -14,8l0 5 20 0 19 0 0 -5c-11,0 -13,0 -13,-8l0 -32c0,-18 12,-28 23,-28 11,0 13,9 13,19l0 41c0,8 -2,8 -13,8l0 5 19 0 20 0z"/>
  <path id="13" class="fil9" d="M5448 121l0 -5c-12,0 -13,-1 -13,-10l0 -106 -25 2 0 5c12,0 13,2 13,10l0 38c-5,-6 -12,-11 -22,-11 -20,0 -39,17 -39,40 0,22 18,39 37,39 12,0 19,-6 24,-11l0 11 25 -2zm-25 -20c0,3 0,3 -2,6 -5,8 -13,12 -21,12 -8,0 -14,-4 -18,-11 -5,-7 -5,-17 -5,-24 0,-7 0,-17 5,-25 4,-5 11,-11 20,-11 6,0 13,2 19,10 2,3 2,4 2,7l0 36z"/>
  <path id="14" class="fil9" d="M4724 240c0,-2 -2,-2 -3,-2 -2,0 -2,0 -3,4 -7,20 -13,36 -43,36l-26 0 90 -107c2,-2 2,-3 2,-4 0,-2 -1,-2 -4,-2l-67 0c-4,0 -4,0 -5,4l-10 31c0,1 0,3 0,3 0,1 2,1 2,1 2,0 3,0 3,-3 6,-16 13,-30 40,-30l25 0 -91 107c-1,2 -2,3 -2,5 0,1 2,1 4,1l70 0c4,0 4,0 5,-3l12 -38c0,-1 1,-3 1,-3z"/>
  <path id="15" class="fil9" d="M4783 250c1,-1 2,-5 2,-6 0,-2 -2,-2 -5,-2l-34 0c-3,0 -4,0 -4,2 -1,1 -2,5 -2,5 0,3 2,3 5,3l33 0c4,0 5,0 5,-2z"/>
  <path id="16" class="fil9" d="M4872 269l0 -10 -4 0 0 10c0,10 -5,11 -6,11 -6,0 -7,-8 -7,-9l0 -35c0,-7 0,-14 -6,-20 -7,-7 -16,-10 -24,-10 -14,0 -26,8 -26,20 0,5 3,8 8,8 4,0 8,-3 8,-8 0,-2 -1,-8 -9,-8 4,-6 13,-8 19,-8 8,0 18,7 18,22l0 7c-9,0 -21,1 -32,6 -13,6 -18,15 -18,23 0,14 17,18 28,18 12,0 20,-7 23,-15 1,7 6,14 14,14 4,0 14,-2 14,-16l0 0zm-29 -9c0,17 -13,22 -20,22 -9,0 -16,-6 -16,-14 0,-10 7,-24 36,-25l0 17z"/>
  <path id="17" class="fil9" d="M4965 284l0 -5c-9,0 -12,0 -16,-5l-24 -31c6,-6 12,-15 16,-19 6,-7 13,-9 21,-9l0 -6c-4,1 -10,1 -14,1 -5,0 -15,-1 -17,-1l0 6c4,0 5,2 5,5 0,3 -2,5 -3,6l-10 14 -14 -18c-2,-2 -2,-2 -2,-3 0,-3 3,-4 7,-4l0 -6 -19 1c-4,0 -12,0 -17,-1l0 6c12,0 13,0 21,10l17 23c-8,10 -8,11 -16,21 -9,10 -19,10 -23,10l0 5c5,0 10,0 15,0l16 0 0 -5c-3,-1 -5,-3 -5,-5 0,-4 5,-10 16,-23l13 18c2,2 4,5 4,6 0,1 -2,4 -6,4l0 5 19 0c4,0 11,0 16,0z"/>
  <path id="18" class="fil9" d="M5010 284l0 -5c-11,0 -12,-1 -12,-8l0 -64 -24 2 0 6c11,0 13,1 13,9l0 47c0,8 -2,8 -14,8l0 5 19 0c6,0 13,0 18,0zm-9 -105c0,-5 -4,-9 -9,-9 -6,0 -10,5 -10,9 0,5 4,9 9,9 6,0 10,-5 10,-9z"/>
  <path id="19" class="fil9" d="M5079 262c0,-9 -6,-14 -8,-17 -5,-5 -12,-7 -20,-8 -9,-2 -21,-4 -21,-14 0,-6 5,-13 20,-13 19,0 20,15 20,21 0,1 2,1 2,1 2,0 2,-1 2,-4l0 -18c0,-3 0,-4 -2,-4 0,0 -1,0 -3,2 -1,1 -2,3 -3,3 -7,-5 -14,-5 -16,-5 -22,0 -28,12 -28,22 0,6 2,11 7,15 6,4 11,5 23,8 4,0 18,3 18,16 0,9 -6,15 -19,15 -15,0 -21,-9 -25,-24 0,-3 0,-3 -2,-3 -2,0 -2,1 -2,4l0 23c0,3 0,4 2,4 0,0 1,0 4,-3 0,-1 0,-1 3,-4 8,7 16,7 20,7 20,0 28,-11 28,-24l0 0z"/>
  <path class="fil10" d="M5268 480l-845 849 426 -946c130,-4 150,2 240,20 89,18 178,76 179,77z"/>
  <polyline class="fil3 str5" points="4423,1329 5005,1329 5268,1019 5268,480 "/>
  <line class="fil3 str3" x1="5330" y1="1019" x2="5528" y2= "1019" />
  <line class="fil3 str3" x1="5075" y1="1329" x2="5272" y2= "1329" />
  <line class="fil3 str3" x1="5434" y1="1043" x2="5548" y2= "995" />
  <line class="fil3 str3" x1="5183" y1="1353" x2="5297" y2= "1305" />
  <path class="fil0" d="M5501 1179c0,-9 -11,-11 -17,-11 -12,0 -19,9 -21,13 -2,-9 -9,-13 -15,-13 -6,0 -10,4 -12,10 -4,7 -6,17 -6,17 0,2 2,2 3,2 2,0 2,0 3,-4 3,-12 6,-21 12,-21 4,0 4,5 4,7 0,3 0,6 -1,9l-13 53c0,1 0,1 0,2 0,2 1,4 4,4 6,0 7,-5 7,-6l12 -46c0,0 8,-23 23,-23 0,0 5,0 9,3 -6,2 -7,7 -7,8 0,2 2,6 6,6 3,0 9,-3 9,-10z"/>
  <path id="1" class="fil0" d="M5565 1222c0,0 0,-1 -1,-1 -2,0 -4,0 -6,0 -3,0 -6,0 -8,0 -1,0 -2,0 -2,2 0,0 1,1 1,1 2,0 3,0 3,2 0,1 -2,3 -2,4l-19 23 -8 -26c-1,-1 -1,-1 -1,-1 0,-2 4,-2 5,-2 1,0 2,0 2,-2 0,-1 -1,-1 -1,-1 -4,0 -7,0 -10,0 -3,0 -7,0 -10,0 0,0 -1,0 -1,2 0,1 1,1 2,1 4,0 5,0 5,2l10 29c0,1 0,1 0,2 0,0 -3,14 -4,16 -1,4 -1,5 -8,5 -1,0 -2,0 -2,1 0,1 1,1 1,1 4,0 7,0 11,0 3,0 7,0 10,0 0,0 2,0 2,-1 0,-1 -1,-1 -3,-1 -2,0 -5,0 -5,-2 0,0 1,-5 2,-7l3 -11c0,-1 0,-2 1,-2l20 -25c4,-5 8,-7 12,-7 1,-1 1,-1 1,-2z"/>
  <line class="fil3 str0" x1="4423" y1="1329" x2="5268" y2= "480" />
  <line class="fil3 str0" x1="4423" y1="1329" x2="4849" y2= "383" />
  <circle class="fil4 str1" cx="5268" cy="480" r="37"/>
  <circle class="fil4 str1" cx="4849" cy="383" r="37"/>
  <circle class="fil5 str2" cx="4423" cy="1329" r="37"/>
  <polygon class="fil6 str4" points="4531,1201 4423,1329 "/>
  <g>
   <path class="fil0" d="M4606 1333l-183 0 0 -9 183 0 0 9zm45 -4l-53 22 1 -1 0 -2 1 -1 0 -1 1 -2 0 -1 1 -2 0 -1 0 -2 1 -1 0 -1 0 -2 0 -1 0 -2 0 -1 0 -1 0 -2 0 -1 0 -2 0 -1 0 -1 0 -2 -1 -1 0 -2 0 -1 -1 -2 0 -1 -1 -1 0 -2 -1 -1 0 -2 -1 -1 0 0 53 23z"/>
  </g>
  <g>
   <path class="fil9" d="M4556 1180l-130 152 -7 -7 130 -152 7 7zm25 -38l-17 55 0 -1 -1 -2 -1 -1 0 -2 -1 -1 -1 -1 -1 -1 0 -2 -1 -1 -1 -1 -1 -1 -1 -1 -1 -1 -1 -1 -1 -1 -1 -1 -1 -1 -1 -1 -1 -1 -2 0 -1 -1 -1 -1 -1 -1 -2 0 -1 -1 -1 0 -2 -1 -1 -1 -2 0 -1 -1 -1 0 -2 0 0 0 51 -26z"/>
  </g>
  <line class="fil3 str6" x1="4849" y1="447" x2="4849" y2= "1091" />
  <line class="fil3 str6" x1="5268" y1="547" x2="5268" y2= "1091" />
  <line class="fil3 str6" x1="4816" y1="1054" x2="5323" y2= "1054" />
  <line class="fil3 str6" x1="4823" y1="1081" x2="4875" y2= "1028" />
  <line class="fil3 str6" x1="5242" y1="1081" x2="5295" y2= "1028" />
  <path class="fil8" d="M4904 1118c0,-1 1,-5 1,-5 0,-3 -1,-3 -4,-3l-34 0c-4,0 -4,0 -5,3 0,1 -1,4 -1,5 0,2 1,2 5,2l33 0c3,0 4,0 5,-2z"/>
  <path id="1" class="fil8" d="M4994 1087c0,-9 -11,-11 -17,-11 -12,0 -19,8 -21,12 -2,-9 -9,-12 -15,-12 -6,0 -10,4 -12,9 -4,7 -6,18 -6,18 0,1 2,1 3,1 2,0 2,0 3,-4 3,-12 6,-20 12,-20 4,0 4,5 4,6 0,3 0,7 -1,9l-13 53c0,1 0,2 0,2 0,2 1,5 4,5 6,0 7,-5 7,-7l12 -45c0,-1 8,-23 23,-23 0,0 5,0 9,2 -6,2 -7,7 -7,8 0,3 2,6 6,6 3,0 9,-3 9,-9z"/>
  <path id="2" class="fil8" d="M5209 1183c0,-2 -2,-2 -4,-2 -9,0 -9,-1 -9,-3 0,-1 0,-2 1,-3l24 -95c0,0 0,-2 0,-2 0,-2 -1,-2 -2,-2 -2,0 -8,6 -11,11 -2,-5 -6,-11 -15,-11 -19,0 -40,26 -40,52 0,15 8,27 21,27 7,0 14,-5 19,-10 -4,14 -4,14 -7,28 -2,7 -2,8 -13,8 -3,0 -4,0 -4,4 0,1 1,2 2,2 5,0 11,-1 17,-1 6,0 12,1 18,1 1,0 3,0 3,-4zm-13 -51c-1,5 -12,19 -21,19 -9,0 -10,-10 -10,-16 0,-8 5,-29 9,-36 4,-11 12,-19 19,-19 2,0 6,0 9,5 1,2 3,7 3,11 0,0 0,1 0,2l-9 34z"/>
  <path id="3" class="fil8" d="M5058 1129c0,0 0,-1 -1,-1 -2,0 -4,0 -6,0 -3,0 -6,0 -8,0 -1,0 -2,0 -2,2 0,1 1,1 1,1 2,0 3,0 3,2 0,1 -2,4 -2,4l-19 23 -8 -26c-1,-1 -1,-1 -1,-1 0,-2 4,-2 5,-2 1,0 2,0 2,-2 0,-1 -1,-1 -1,-1 -4,0 -7,0 -10,0 -3,0 -7,0 -10,0 0,0 -1,0 -1,2 0,1 1,1 2,1 4,0 5,0 5,2l10 30c0,0 0,1 0,1 0,0 -3,14 -4,16 -1,5 -1,5 -8,5 -1,0 -2,0 -2,2 0,1 1,1 1,1 4,0 7,-1 11,-1 3,0 7,1 10,1 0,0 2,0 2,-2 0,-1 -1,-1 -3,-1 -2,0 -5,0 -5,-1 0,-1 1,-5 2,-8l3 -11c0,-1 0,-1 1,-2l20 -25c4,-5 8,-7 12,-7 1,0 1,0 1,-2z"/>
  <path id="4" class="fil8" d="M5283 1149c0,-14 -9,-23 -20,-23 -17,0 -35,21 -35,41 0,13 8,23 20,23 17,0 35,-20 35,-41zm-7 -3c0,6 -2,20 -9,29 -5,8 -13,13 -19,13 -8,0 -13,-7 -13,-18 0,-5 2,-18 8,-29 5,-7 13,-13 20,-13 8,0 13,8 13,18zm-5 8c0,0 0,-1 0,-1 0,0 0,-1 -1,-1 -2,0 -2,3 -2,3l-23 0c0,-1 0,-2 0,-2 0,0 0,-1 -1,-1 -2,0 -2,0 -2,1l-2 9c0,0 0,1 0,1 0,0 0,1 1,1 2,0 2,-3 2,-3l24 0c-1,0 -1,1 -1,2 0,0 0,1 1,1 2,0 2,-1 2,-2l2 -8z"/>
  <path id="5" class="fil8" d="M5334 1165c0,-1 -1,-1 -1,-1 -1,0 -1,1 -2,3 -3,10 -6,18 -21,18l-13 0 45 -54c1,-1 1,-2 1,-2 0,-1 -1,-1 -2,-1l-34 0c-2,0 -2,0 -2,2l-5 16c0,0 0,1 0,1 0,1 1,1 1,1 1,0 1,-1 2,-2 2,-8 6,-15 19,-15l13 0 -46 54c0,0 0,1 0,2 0,1 0,1 2,1l34 0c2,0 2,0 3,-2l6 -19c0,0 0,-2 0,-2z"/>
  <path id="6" class="fil8" d="M5095 1095c-1,1 -3,2 -4,2 -2,0 -4,-1 -5,-2 -1,-1 -2,-3 -2,-5 0,-2 1,-3 2,-5 1,-1 3,-2 5,-2 1,0 3,1 4,2 2,2 2,3 2,5 0,2 0,4 -2,5z"/>
  <path class="fil7" d="M4283 1431c0,-2 -2,-2 -4,-2 -9,0 -9,-1 -9,-3 0,-1 0,-2 1,-3l24 -96c0,0 0,-2 0,-2 0,-1 -1,-2 -2,-2 -2,0 -8,6 -11,11 -2,-5 -6,-11 -15,-11 -19,0 -40,27 -40,52 0,15 8,27 21,27 7,0 14,-4 19,-9 -4,14 -4,14 -7,27 -2,8 -2,9 -13,9 -3,0 -4,0 -4,3 0,2 1,2 2,2 5,0 11,0 17,0 6,0 12,0 18,0 1,0 3,0 3,-3zm-13 -52c-1,5 -12,19 -21,19 -9,0 -10,-10 -10,-15 0,-9 5,-29 9,-37 4,-10 12,-19 19,-19 2,0 6,0 9,5 1,3 3,8 3,11 0,1 0,1 0,2l-9 34z"/>
  <path id="1" class="fil7" d="M4357 1396c0,-14 -9,-22 -20,-22 -17,0 -35,20 -35,41 0,13 8,22 20,22 17,0 35,-20 35,-41zm-7 -3c0,7 -2,20 -9,29 -5,9 -13,13 -19,13 -8,0 -13,-7 -13,-17 0,-6 2,-19 8,-29 5,-8 13,-13 20,-13 8,0 13,7 13,17zm-5 8c0,0 0,0 0,-1 0,0 0,-1 -1,-1 -2,0 -2,3 -2,3l-23 0c0,0 0,-1 0,-2 0,0 0,-1 -1,-1 -2,0 -2,1 -2,2l-2 8c0,1 0,1 0,1 0,1 0,1 1,1 2,0 2,-3 2,-3l24 0c-1,1 -1,2 -1,2 0,1 0,1 1,1 2,0 2,0 2,-1l2 -9z"/>
  <path id="2" class="fil7" d="M4408 1413c0,-1 -1,-1 -1,-1 -1,0 -1,0 -2,2 -3,10 -6,18 -21,18l-13 0 45 -53c1,-2 1,-2 1,-3 0,0 -1,0 -2,0l-34 0c-2,0 -2,0 -2,1l-5 16c0,0 0,1 0,1 0,1 1,1 1,1 1,0 1,0 2,-1 2,-8 6,-16 19,-16l13 0 -46 54c0,1 0,1 0,2 0,1 0,1 2,1l34 0c2,0 2,0 3,-1l6 -20c0,0 0,-1 0,-1z"/>
  <g>
   <path class="fil7" d="M4396 1157l-3 -9 0 0 2 -1 2 0 3 -1 2 -1 3 0 3 -1 3 0 2 0 3 0 3 -1 3 0 3 0 3 1 3 0 3 0 3 1 3 0 3 1 3 0 3 1 2 1 3 1 2 1 3 2 2 1 2 1 2 2 2 2 2 2 1 2 1 3 1 2 -9 3 -1 -2 0 -1 -1 -1 -1 -2 -1 -1 -2 -1 -1 -1 -2 -1 -2 -1 -2 -1 -2 -1 -2 -1 -3 0 -2 -1 -3 0 -2 -1 -3 0 -3 -1 -2 0 -3 0 -3 0 -2 0 -3 0 -3 0 -2 1 -3 0 -2 0 -3 1 -2 0 -2 1 -2 1 -2 0 0 0zm-38 73l-10 2 0 0 -1 -4 0 -3 0 -4 -1 -3 0 -3 0 -4 1 -3 0 -3 0 -3 1 -3 1 -4 0 -3 1 -2 1 -3 2 -3 1 -3 1 -2 2 -3 2 -3 2 -2 2 -2 2 -3 2 -2 2 -2 3 -2 2 -2 3 -2 3 -1 3 -2 3 -2 3 -1 4 -2 3 9 -3 2 -2 1 -3 1 -3 2 -2 1 -3 2 -2 2 -2 2 -2 1 -2 2 -2 2 -2 2 -1 2 -2 2 -1 2 -1 3 -2 2 -1 2 -1 3 0 2 -1 3 -1 2 0 3 0 3 -1 3 0 3 0 3 0 3 0 3 1 3 0 3 1 3 0 0zm17 19l-3 9 -1 0 -1 0 -1 -1 0 0 -1 -1 -1 -1 -1 0 -1 -1 -1 -1 -1 0 -1 -1 -1 -1 0 -1 -1 -1 -1 -1 -1 -1 -1 -1 -1 0 -1 -1 0 -1 -1 -1 -1 -1 -1 -1 0 -1 -1 -1 -1 -1 0 -1 -1 -1 0 -1 0 -1 -1 -1 0 -1 10 -2 0 1 0 0 0 0 0 1 0 0 1 1 0 1 1 0 0 1 1 1 0 1 1 0 1 1 0 1 1 1 1 1 1 1 0 0 1 1 1 1 1 1 1 0 0 1 1 1 1 0 1 1 0 0 1 0 0 1 1 0 0 0 0 0zm41 20l-57 4 1 -1 1 -1 1 -2 1 -1 1 -1 1 -1 1 -1 1 -2 1 -1 0 -1 1 -1 1 -2 0 -1 1 -1 0 -1 1 -2 0 -1 1 -1 0 -2 0 -1 1 -2 0 -1 0 -1 0 -2 0 -1 0 -2 0 -1 0 -2 0 -1 0 -2 0 -1 0 -2 0 0 42 39z"/>
  </g>
  <g>
   <path class="fil9" d="M4427 1114l0 215 -9 0 0 -215 9 0zm-4 -45l22 53 -1 -1 -2 -1 -1 0 -1 -1 -2 0 -1 -1 -2 0 -1 0 -1 -1 -2 0 -1 0 -2 0 -1 -1 -2 0 -1 0 -1 0 -2 0 -1 0 -2 0 -1 1 -1 0 -2 0 -1 0 -2 1 -1 0 -2 0 -1 1 -1 0 -2 1 -1 0 -2 1 -1 1 0 0 23 -53z"/>
  </g>
  <g>
   <path class="fil8" d="M5115 415l3 -10 0 0 7 2 7 2 7 2 7 3 6 2 7 3 7 2 7 3 6 3 7 3 6 3 7 3 6 3 6 3 5 3 6 3 5 2 5 3 5 3 5 2 4 3 4 2 4 2 3 2 3 2 3 2 2 1 2 2 2 1 1 0 1 1 0 0 -5 8 -1 0 0 0 -1 -1 -2 -1 -2 -1 -2 -2 -3 -1 -3 -2 -3 -2 -4 -2 -4 -3 -4 -2 -4 -3 -5 -2 -5 -3 -6 -3 -5 -3 -6 -3 -6 -3 -6 -3 -6 -2 -6 -3 -6 -3 -7 -3 -7 -3 -6 -2 -7 -3 -7 -2 -6 -3 -7 -2 -7 -2 -7 -1 0 0zm-188 -30l1 -10 7 0 7 1 6 0 7 0 6 1 6 0 6 0 6 1 6 1 6 0 6 1 5 1 6 0 5 1 6 1 5 1 6 1 5 1 5 1 6 1 5 1 6 2 5 1 6 1 6 1 6 2 6 1 6 2 6 1 6 2 7 2 7 1 -3 10 -6 -2 -7 -2 -6 -1 -6 -2 -7 -1 -6 -2 -5 -1 -6 -1 -6 -2 -5 -1 -6 -1 -5 -1 -5 -1 -6 -1 -5 -2 -5 0 -6 -1 -5 -1 -6 -1 -5 -1 -5 -1 -6 0 -6 -1 -5 0 -6 -1 -6 0 -6 -1 -7 0 -6 -1 -7 0 -7 0 -7 0zm-45 -6l54 -22 -1 2 -1 1 0 2 -1 1 0 1 -1 2 0 1 -1 2 0 1 -1 1 0 2 0 1 0 2 0 1 0 2 -1 1 0 1 1 2 0 1 0 2 0 1 0 1 0 2 1 1 0 2 0 1 1 2 0 1 1 1 0 2 1 1 1 2 0 0 -53 -24z"/>
  </g>
  <g>
   <path class="fil2" d="M4633 1062l3 -9 0 0 2 0 1 1 2 0 2 1 2 1 2 0 2 1 2 1 1 1 2 1 2 0 2 1 1 1 2 1 1 0 2 1 1 1 2 1 1 1 1 0 1 1 1 0 1 1 1 1 1 0 1 1 0 0 1 0 0 1 1 0 0 0 0 0 -5 8 0 0 -1 0 0 0 0 -1 -1 0 0 0 -1 -1 -1 0 -1 -1 0 0 -2 -1 -1 0 -1 -1 -1 -1 -1 0 -2 -1 -1 -1 -2 -1 -1 0 -2 -1 -1 -1 -2 -1 -1 0 -2 -1 -2 -1 -2 0 -1 -1 -2 -1 -2 0 -1 -1 -2 0 -2 -1 0 0zm-48 -8l0 -9 2 0 2 0 1 0 2 0 2 0 1 0 2 0 2 1 1 0 2 0 1 0 2 0 1 0 2 1 1 0 2 0 1 0 2 1 1 0 2 0 1 1 2 0 1 0 2 1 1 0 2 0 1 1 2 0 1 1 2 0 2 0 2 1 -3 9 -2 0 -1 -1 -2 0 -2 0 -1 -1 -2 0 -1 -1 -2 0 -1 0 -2 -1 -1 0 -1 0 -2 0 -1 -1 -2 0 -1 0 -1 0 -2 -1 -1 0 -1 0 -2 0 -1 0 -2 -1 -1 0 -2 0 -1 0 -2 0 -1 0 -2 0 -2 0 -2 0 -1 -1zm-45 -5l53 -22 -1 2 0 1 -1 1 -1 2 0 1 -1 2 0 1 -1 1 0 2 0 1 -1 2 0 1 0 1 0 2 0 1 0 2 0 1 0 2 0 1 0 1 0 2 0 1 1 2 0 1 0 1 1 2 0 1 1 2 0 1 1 2 0 1 1 1 0 0 -52 -23z"/>
  </g>
  <g>
   <path class="fil2" d="M4772 868l3 -9 0 0 3 1 4 1 4 1 3 1 4 1 3 2 4 1 3 1 4 2 3 1 3 2 3 1 3 2 4 1 2 2 3 1 3 2 3 1 2 2 2 1 3 1 2 2 2 1 1 1 2 1 1 0 2 1 1 1 0 0 1 1 0 0 0 0 -5 8 0 0 0 0 -1 0 -1 -1 -1 -1 -1 0 -1 -1 -2 -1 -1 -1 -2 -1 -2 -1 -2 -2 -3 -1 -2 -1 -3 -2 -2 -1 -3 -1 -3 -2 -3 -1 -3 -2 -3 -1 -3 -2 -3 -1 -4 -2 -3 -1 -3 -1 -4 -2 -3 -1 -3 -1 -4 -1 -3 -1 -4 -1 0 0zm-95 -15l1 -10 3 0 4 1 3 0 3 0 4 0 3 0 3 1 3 0 3 0 3 0 3 1 3 0 3 1 2 0 3 0 3 1 3 0 3 1 2 1 3 0 3 1 3 0 3 1 3 1 2 0 3 1 3 1 4 0 3 1 3 1 3 1 4 1 -3 9 -3 -1 -3 -1 -4 0 -3 -1 -3 -1 -3 -1 -3 0 -3 -1 -3 -1 -2 0 -3 -1 -3 0 -3 -1 -2 -1 -3 0 -3 -1 -2 0 -3 0 -3 -1 -2 0 -3 -1 -3 0 -3 0 -3 0 -3 -1 -3 0 -3 0 -3 0 -3 -1 -4 0 -3 0 -4 0zm-45 -6l54 -21 -1 1 -1 2 0 1 -1 1 0 2 -1 1 0 2 -1 1 0 1 0 2 -1 1 0 2 0 1 0 1 0 2 0 1 0 2 0 1 0 2 0 1 0 1 0 2 0 1 1 2 0 1 0 1 1 2 0 1 1 2 0 1 1 2 1 1 0 0 -53 -24z"/>
  </g>
  <g>
   <path class="fil2" d="M4855 752l2 -10 0 0 5 1 5 2 4 1 5 2 4 1 5 2 4 2 5 2 4 2 5 2 4 2 4 1 4 2 4 2 4 2 3 2 4 2 3 2 4 2 3 1 2 2 3 2 3 1 2 1 2 2 2 1 1 1 1 1 1 0 1 1 1 0 0 0 -5 8 -1 0 0 0 -1 -1 -1 0 -1 -1 -1 -1 -2 -1 -2 -1 -2 -2 -3 -1 -2 -1 -3 -2 -3 -2 -3 -2 -4 -1 -3 -2 -4 -2 -3 -2 -4 -2 -4 -2 -4 -2 -4 -2 -5 -1 -4 -2 -4 -2 -4 -2 -5 -1 -4 -2 -5 -2 -4 -1 -5 -1 -4 -1 0 0zm-124 -20l1 -10 4 0 5 1 4 0 5 0 4 0 4 1 4 0 4 0 4 1 4 0 3 1 4 0 4 1 3 0 4 1 4 0 3 1 4 1 3 0 4 1 4 1 3 1 4 0 4 1 4 1 3 1 4 1 4 1 4 1 5 1 4 1 4 1 -2 10 -4 -1 -5 -2 -4 -1 -4 -1 -4 -1 -4 -1 -4 0 -3 -1 -4 -1 -4 -1 -3 -1 -4 0 -4 -1 -3 -1 -4 -1 -3 0 -4 -1 -3 0 -4 -1 -3 0 -4 -1 -3 0 -4 -1 -4 0 -4 0 -4 -1 -4 0 -4 0 -4 0 -4 -1 -5 0 -5 0zm-44 -6l53 -21 -1 1 -1 2 0 1 -1 1 0 2 -1 1 0 2 -1 1 0 1 0 2 -1 1 0 2 0 1 0 1 0 2 0 1 0 2 0 1 0 1 0 2 0 1 0 2 1 1 0 2 0 1 1 1 0 2 0 1 1 2 1 1 0 2 1 1 0 0 -52 -24z"/>
  </g>
  <g>
   <path class="fil2" d="M4953 619l2 -9 0 0 6 1 5 2 6 1 6 2 5 2 6 2 5 3 6 2 5 2 6 2 5 3 5 2 5 3 5 2 4 2 5 3 4 2 4 2 4 3 4 2 3 2 4 2 3 1 2 2 3 2 2 1 2 1 2 1 1 1 1 0 0 1 0 0 -5 8 0 0 -1 0 0 -1 -2 -1 -1 -1 -2 -1 -2 -1 -3 -2 -2 -1 -3 -2 -3 -2 -4 -2 -4 -2 -3 -2 -5 -2 -4 -3 -4 -2 -5 -2 -5 -3 -4 -2 -5 -2 -5 -3 -6 -2 -5 -2 -5 -2 -6 -3 -5 -2 -5 -2 -6 -1 -5 -2 -6 -2 -5 -1 0 0zm-152 -24l0 -10 6 0 5 0 6 1 5 0 5 0 5 1 5 0 5 0 5 1 4 0 5 1 5 1 4 0 5 1 4 1 4 0 5 1 4 1 5 1 4 1 4 1 5 1 4 1 5 1 5 1 4 1 5 1 5 1 5 2 5 1 6 1 5 2 -2 9 -6 -1 -5 -2 -5 -1 -5 -1 -5 -2 -5 -1 -5 -1 -4 -1 -5 -1 -4 -1 -5 -1 -4 -1 -4 -1 -5 -1 -4 0 -4 -1 -5 -1 -4 -1 -4 0 -5 -1 -4 0 -5 -1 -4 0 -5 -1 -5 0 -4 -1 -5 0 -5 0 -6 -1 -5 0 -6 0 -5 0zm-45 -6l53 -22 -1 2 0 1 -1 2 0 1 -1 1 -1 2 0 1 0 2 -1 1 0 2 0 1 -1 1 0 2 0 1 0 2 0 1 0 1 0 2 0 1 0 2 0 1 1 1 0 2 0 1 0 2 1 1 0 2 1 1 0 1 1 2 0 1 1 2 0 0 -52 -24z"/>
  </g>
  <g>
   <path class="fil2" d="M5037 500l2 -9 0 0 7 1 6 2 7 3 7 2 6 2 7 3 6 2 7 3 6 3 7 2 6 3 6 3 6 3 5 3 6 3 5 2 5 3 5 3 5 2 4 3 4 2 4 2 4 3 3 2 3 1 3 2 2 1 2 1 1 1 1 1 1 1 0 0 -5 8 0 0 -1 -1 -1 0 -2 -1 -1 -1 -3 -2 -2 -1 -3 -2 -3 -2 -4 -2 -4 -2 -4 -3 -4 -2 -5 -3 -4 -2 -5 -3 -6 -3 -5 -3 -6 -2 -6 -3 -5 -3 -6 -3 -7 -3 -6 -2 -6 -3 -7 -2 -6 -3 -6 -2 -7 -2 -6 -2 -7 -2 -6 -2 0 0zm-181 -29l0 -9 7 0 7 0 6 0 6 1 7 0 6 1 5 0 6 1 6 0 5 1 6 0 5 1 5 1 6 1 5 0 5 1 5 1 6 1 5 1 5 1 5 1 6 2 5 1 5 1 6 1 6 2 5 1 6 2 6 1 6 2 7 1 6 2 -2 9 -7 -1 -6 -2 -6 -2 -6 -1 -6 -1 -6 -2 -5 -1 -6 -1 -5 -2 -6 -1 -5 -1 -5 -1 -5 -1 -5 -1 -5 -1 -6 -1 -5 -1 -5 -1 -5 -1 -5 0 -5 -1 -6 -1 -5 0 -6 -1 -5 0 -6 -1 -6 0 -6 -1 -6 0 -7 0 -6 0 -7 -1zm-45 -5l53 -22 0 2 -1 1 -1 1 0 2 -1 1 0 2 -1 1 0 1 0 2 -1 1 0 2 0 1 0 1 -1 2 0 1 0 2 0 1 0 2 0 1 0 1 1 2 0 1 0 2 0 1 1 1 0 2 1 1 0 2 1 1 0 2 1 1 0 1 0 0 -52 -23z"/>
  </g>
  <line class="fil3 str3" x1="5491" y1="1019" x2="5240" y2= "1329" />
  <path class="fil0" d="M476 1281c0,-2 -1,-2 -3,-2 -7,0 -8,-2 -9,-4l-16 -44 22 -25 2 -2c3,-3 8,-9 18,-9 2,-1 3,-1 3,-3 0,-1 -1,-2 -1,-2 -4,0 -8,1 -12,1 -5,0 -10,-1 -14,-1 -1,0 -3,0 -3,3 0,1 1,2 2,2 1,0 5,0 5,4 0,1 -1,2 -3,5l-20 23 -10 -27 -1 -1c0,-1 3,-4 8,-4 1,0 2,-1 2,-3 0,-1 -1,-2 -2,-2 -5,0 -10,1 -16,1 -4,0 -9,-1 -13,-1 -1,0 -3,0 -3,3 0,2 1,2 3,2 8,0 8,1 9,4l14 38 -28 32c-8,9 -16,10 -20,10 -2,0 -2,3 -2,3 0,0 0,1 2,1 4,0 8,0 12,0 4,0 9,0 14,0 0,0 2,0 2,-3 0,-1 -1,-1 -1,-1 -5,0 -5,-3 -5,-4 0,-1 0,-2 1,-3 0,-1 0,-1 0,-1l1 0 26 -30 12 32c0,1 0,1 0,2 0,1 -3,4 -8,4 -1,0 -2,0 -2,3 0,1 2,1 2,1 5,0 11,0 16,0 4,0 9,0 14,0 1,0 2,0 2,-2z"/>
  <path class="fil0" d="M2548 986c0,0 0,-2 -1,-2 -3,0 -7,1 -10,1 -5,0 -9,-1 -13,-1 -1,0 -3,0 -3,3 0,2 2,2 2,2 3,0 5,1 5,3 0,2 -3,6 -4,6l-29 36 -13 -40c-1,-2 -1,-2 -1,-2 0,-3 6,-3 8,-3 1,0 3,0 3,-3 0,-2 -2,-2 -2,-2 -5,0 -11,1 -16,1 -5,0 -10,-1 -14,-1 -1,0 -3,0 -3,3 0,2 2,2 3,2 7,0 8,1 9,4l15 45c0,1 0,2 0,2 0,1 -5,22 -6,25 -2,7 -2,8 -12,8 -2,0 -3,0 -3,3 0,1 1,1 1,1 6,0 11,0 16,0 5,0 11,0 16,0 1,0 3,0 3,-2 0,-2 -1,-2 -4,-2 -4,0 -8,0 -8,-2 0,-1 2,-8 3,-12l4 -17c1,-2 1,-2 2,-3l32 -39c6,-8 11,-11 18,-11 1,0 2,0 2,-3z"/>
  <path class="fil0" d="M2226 1060c0,-2 -1,-2 -2,-2 -1,0 -2,0 -3,4 -5,15 -9,28 -33,28l-20 0 70 -84c2,-1 2,-2 2,-3 0,-1 -1,-1 -3,-1l-53 0c-3,0 -3,0 -4,2l-7 25c0,0 -1,2 -1,2 0,1 2,1 2,1 2,0 2,0 3,-2 4,-13 9,-24 31,-24l19 0 -71 84c0,1 -1,2 -1,3 0,1 1,1 3,1l54 0c3,0 3,0 4,-2l10 -30c0,0 0,-2 0,-2z"/>
  <path class="fil0" d="M2631 1281c0,-2 -1,-2 -3,-2 -7,0 -8,-2 -9,-4l-16 -44 22 -25 2 -2c3,-3 8,-9 18,-9 2,-1 3,-1 3,-3 0,-1 -1,-2 -2,-2 -3,0 -7,1 -11,1 -5,0 -10,-1 -15,-1 0,0 -2,0 -2,3 0,1 1,2 2,2 1,0 5,0 5,4 0,1 -1,2 -3,5l-20 23 -10 -27 -1 -1c0,-1 3,-4 8,-4 1,0 2,-1 2,-3 0,-1 -1,-2 -2,-2 -5,0 -10,1 -16,1 -4,0 -9,-1 -14,-1 0,0 -2,0 -2,3 0,2 1,2 3,2 7,0 8,1 9,4l14 38 -28 32c-8,9 -16,10 -20,10 -2,0 -2,3 -2,3 0,0 0,1 2,1 4,0 8,0 12,0 4,0 9,0 14,0 0,0 2,0 2,-3 0,-1 -2,-1 -2,-1 -4,0 -4,-3 -4,-4 0,-1 0,-2 1,-3 0,-1 0,-1 0,-1l0 0 27 -30 12 32c0,1 0,1 0,2 0,1 -3,4 -8,4 -1,0 -2,0 -2,3 0,1 2,1 2,1 5,0 11,0 16,0 4,0 9,0 14,0 1,0 2,0 2,-2z"/>
  <path class="fil0" d="M4681 986c0,0 0,-2 -2,-2 -3,0 -7,1 -10,1 -5,0 -9,-1 -13,-1 -1,0 -2,0 -2,3 0,2 1,2 2,2 2,0 4,1 4,3 0,2 -3,6 -4,6l-29 36 -13 -40c-1,-2 -1,-2 -1,-2 0,-3 6,-3 8,-3 1,0 3,0 3,-3 0,-2 -1,-2 -2,-2 -5,0 -11,1 -16,1 -5,0 -10,-1 -14,-1 -1,0 -3,0 -3,3 0,2 2,2 4,2 6,0 7,1 8,4l15 45c0,1 0,2 0,2 0,1 -5,22 -6,25 -2,7 -2,8 -12,8 -2,0 -3,0 -3,3 0,1 1,1 2,1 5,0 10,0 15,0 6,0 11,0 16,0 1,0 3,0 3,-2 0,-2 -1,-2 -4,-2 -4,0 -7,0 -7,-2 0,-1 1,-8 2,-12l4 -17c1,-2 1,-2 2,-3l32 -39c6,-8 12,-11 18,-11 1,0 3,0 3,-3z"/>
  <path class="fil0" d="M4358 1060c0,-2 -1,-2 -2,-2 -1,0 -1,0 -3,4 -5,15 -9,28 -33,28l-20 0 70 -84c2,-1 2,-2 2,-3 0,-1 -1,-1 -3,-1l-53 0c-3,0 -3,0 -4,2l-7 25c0,0 -1,2 -1,2 0,1 2,1 2,1 2,0 2,0 3,-2 4,-13 9,-24 31,-24l19 0 -70 84c-1,1 -2,2 -2,3 0,1 1,1 3,1l55 0c2,0 3,0 3,-2l10 -30c0,0 0,-2 0,-2z"/>
  <path class="fil0" d="M4763 1281c0,-2 -1,-2 -3,-2 -7,0 -8,-2 -9,-4l-16 -44 22 -25 2 -2c3,-3 8,-9 18,-9 2,-1 3,-1 3,-3 0,-1 -1,-2 -1,-2 -4,0 -8,1 -12,1 -5,0 -10,-1 -14,-1 -1,0 -3,0 -3,3 0,1 1,2 2,2 1,0 5,0 5,4 0,1 -1,2 -3,5l-20 23 -10 -27 -1 -1c0,-1 3,-4 8,-4 1,0 2,-1 2,-3 0,-1 -1,-2 -2,-2 -5,0 -10,1 -16,1 -4,0 -9,-1 -13,-1 -1,0 -3,0 -3,3 0,2 1,2 3,2 8,0 8,1 9,4l14 38 -28 32c-8,9 -16,10 -20,10 -2,0 -2,3 -2,3 0,0 1,1 2,1 4,0 8,0 12,0 4,0 9,0 14,0 1,0 2,0 2,-3 0,-1 -1,-1 -1,-1 -4,0 -5,-3 -5,-4 0,-1 0,-2 1,-3 0,-1 0,-1 1,-1l0 0 26 -30 12 32c0,1 0,1 0,2 0,1 -3,4 -8,4 -1,0 -2,0 -2,3 0,1 2,1 2,1 5,0 11,0 16,0 5,0 9,0 14,0 1,0 2,0 2,-2z"/>
 </g>
</svg>
