<?xml version="1.0" encoding="UTF-8"?>
<!DOCTYPE svg PUBLIC "-//W3C//DTD SVG 1.1//EN" "http://www.w3.org/Graphics/SVG/1.1/DTD/svg11.dtd">
<!-- Creator: CorelDRAW X7 -->
<svg xmlns="http://www.w3.org/2000/svg" xml:space="preserve" width="45.7681mm" height="17.6671mm" version="1.1" style="shape-rendering:geometricPrecision; text-rendering:geometricPrecision; image-rendering:optimizeQuality; fill-rule:evenodd; clip-rule:evenodd"
viewBox="0 0 1220 471"
 xmlns:xlink="http://www.w3.org/1999/xlink">
 <defs>
  <style type="text/css">
   <![CDATA[
    .str0 {stroke:#373435;stroke-width:4.70187}
    .str1 {stroke:#373435;stroke-width:4.70187}
    .str4 {stroke:#F06277;stroke-width:4.70187}
    .str2 {stroke:#ED3237;stroke-width:4.70187}
    .str3 {stroke:#373435;stroke-width:4.70187;stroke-dasharray:23.509340 14.105604}
    .fil6 {fill:none}
    .fil3 {fill:#373435}
    .fil5 {fill:#373435}
    .fil7 {fill:#F06277}
    .fil2 {fill:#373435;fill-rule:nonzero}
    .fil4 {fill:#ED3237;fill-rule:nonzero}
    .fil0 {fill:url(#id0)}
    .fil1 {fill:url(#id1)}
   ]]>
  </style>
  <linearGradient id="id0" gradientUnits="userSpaceOnUse" x1="237.932" y1="359.229" x2="417.341" y2="114.641">
   <stop offset="0" style="stop-opacity:1; stop-color:#91D8F7"/>
   <stop offset="1" style="stop-opacity:1; stop-color:#FEFEFE"/>
  </linearGradient>
  <linearGradient id="id1" gradientUnits="userSpaceOnUse" x1="760.309" y1="386.731" x2="1088.18" y2="69.6191">
   <stop offset="0" style="stop-opacity:1; stop-color:#0098DA"/>
   <stop offset="1" style="stop-opacity:1; stop-color:#FEFEFE"/>
  </linearGradient>
 </defs>
 <g id="Layer_x0020_1">
  <metadata id="CorelCorpID_0Corel-Layer"/>
  <path class="fil0 str0" d="M422 460c-51,0 -182,15 -266,6 -84,-9 -152,-39 -148,-156 7,-172 -23,-228 11,-262 33,-34 294,-18 323,-17 30,2 195,-26 246,-26 128,0 24,160 46,274 5,24 12,73 5,112 -5,33 -18,58 -49,56 -64,-3 -116,13 -168,13z"/>
  <path class="fil1 str0" d="M653 64c-2,-78 151,-61 186,-57 35,3 312,8 336,7 24,0 42,5 41,34 0,29 -21,94 -7,204 10,81 35,187 -96,181 -27,-1 -52,-1 -80,-2 -165,-9 -244,23 -305,23 -61,0 -95,-20 -89,-63 7,-39 0,-88 -5,-111 -14,-71 21,-160 19,-216z"/>
  <path class="fil2" d="M140 146l0 -3 -2 0c-7,0 -8,-1 -9,-5l-25 -71c0,-1 -1,-2 -3,-2 -1,0 -2,0 -2,2l-24 68c-2,6 -6,8 -13,8l0 3 12 0 13 0 0 -3c-6,0 -8,-3 -8,-6 0,0 0,-2 0,-2l5 -15 28 0 6 18c0,0 1,1 1,1 0,4 -7,4 -10,4l0 3c4,0 12,0 16,0l15 0zm-29 -29l-26 0 13 -37 13 37z"/>
  <path class="fil2" d="M1140 374c0,-10 -9,-18 -22,-20 11,-2 19,-9 19,-17 0,-10 -10,-20 -25,-20l-42 0 0 4 3 0c9,0 9,1 9,5l0 60c0,4 0,6 -9,6l-3 0 0 3 45 0c15,0 25,-10 25,-21l0 0zm-14 -37c0,7 -5,16 -18,16l-17 0 0 -28c0,-3 1,-4 6,-4l14 0c11,0 15,10 15,16l0 0zm3 37c0,8 -6,18 -18,18l-14 0c-5,0 -6,-1 -6,-5l0 -31 22 0c11,0 16,10 16,18l0 0z"/>
  <circle class="fil3 str0" cx="179" cy="300" r="15"/>
  <circle class="fil3 str0" cx="632" cy="225" r="15"/>
  <circle class="fil3 str0" cx="1117" cy="93" r="15"/>
  <path class="fil2" d="M201 393c0,-1 -1,-1 -3,-1 -3,0 -3,0 -4,3 -1,3 -3,12 -7,12 -1,0 -2,-1 -2,-4 0,-2 1,-3 1,-5l8 -31c0,-2 0,-2 0,-3 0,-3 -2,-5 -5,-5 -1,0 -6,1 -7,7l-8 32c0,2 -1,2 -4,6 -1,1 -4,3 -8,3 -5,0 -5,-6 -5,-8 0,-7 3,-17 6,-24 1,-3 2,-4 2,-6 0,-7 -6,-10 -12,-10 -12,0 -18,15 -18,17 0,2 2,2 4,2 2,0 2,0 3,-2 1,-3 4,-13 10,-13 1,0 2,0 2,2 0,2 -2,6 -2,7 -4,10 -7,18 -7,25 0,10 7,14 17,14 3,0 8,-1 13,-6 2,4 8,6 12,6 5,0 8,-4 10,-6 3,-5 4,-11 4,-12z"/>
  <path id="1" class="fil2" d="M221 433l0 -2 -2 0c-5,0 -5,-1 -5,-3l0 -32c0,-1 0,-1 -1,-1 -4,4 -9,4 -11,4l0 1c1,0 5,0 8,-1l0 29c0,2 0,3 -6,3l-1 0 0 2c2,0 7,0 9,0 2,0 7,0 9,0z"/>
  <path class="fil4" d="M168 171c0,-5 -5,-9 -13,-9 -14,0 -17,13 -18,18l-2 12 -11 0c-2,0 -4,0 -4,3 0,2 2,2 4,2l10 0 -8 43c-2,6 -2,8 -3,13 -1,2 -2,8 -6,8 0,0 -2,0 -3,-1 3,-2 4,-5 4,-7 0,-3 -2,-5 -5,-5 -4,0 -8,3 -8,8 0,6 5,9 12,9 4,0 14,-2 19,-19 1,-5 2,-7 3,-12l7 -37 12 0c2,0 4,0 4,-3 0,-2 -2,-2 -3,-2l-12 0c1,-6 3,-21 4,-23 1,-1 3,-3 4,-3 1,0 2,0 4,1 -3,2 -5,4 -5,8 0,3 2,5 6,5 4,0 8,-4 8,-9z"/>
  <path id="1" class="fil4" d="M176 265l0 -2 -2 0c-5,0 -5,-1 -5,-3l0 -32c0,-1 0,-1 -1,-1 -4,4 -9,4 -11,4l0 1c1,0 5,0 8,-1l0 29c0,2 0,3 -6,3l-1 0 0 2c2,0 7,0 9,0 2,0 7,0 9,0z"/>
  <polygon class="fil4" points="761,160 761,153 730,153 730,160 "/>
  <path id="1" class="fil4" d="M828 110c0,-5 -5,-9 -13,-9 -14,0 -17,13 -18,18l-2 11 -11 0c-2,0 -4,0 -4,4 0,2 2,2 4,2l10 0 -8 43c-1,6 -1,7 -3,13 0,2 -2,8 -6,8 0,0 -1,0 -3,-1 4,-2 5,-5 5,-7 0,-3 -3,-6 -6,-6 -4,0 -8,4 -8,9 0,6 6,9 12,9 4,0 14,-2 19,-19 2,-5 2,-7 3,-12l7 -37 13 0c1,0 4,0 4,-3 0,-3 -3,-3 -4,-3l-12 0c1,-5 4,-20 4,-22 1,-1 3,-3 4,-3 1,0 2,0 4,1 -2,2 -5,4 -5,7 0,3 3,6 6,6 4,0 8,-4 8,-9z"/>
  <path id="2" class="fil4" d="M838 194l-1 0c-1,2 -1,4 -2,5 0,0 -4,0 -5,0l-10 0 6 -5c9,-8 12,-11 12,-17 0,-7 -5,-11 -12,-11 -6,0 -11,5 -11,10 0,3 3,3 3,3 1,0 3,0 3,-3 0,-1 -1,-3 -3,-3 0,0 0,0 0,0 1,-3 4,-5 7,-5 5,0 8,4 8,9 0,4 -3,9 -6,12l-11 13c-1,0 -1,0 -1,2l21 0 2 -10z"/>
  <path id="3" class="fil4" d="M865 117c0,0 -1,0 -1,0 -1,0 -1,0 -1,0 -2,6 -7,6 -8,6 -2,0 -5,-1 -6,-3 -2,-3 -2,-7 -2,-9l16 0c1,0 2,0 2,-1 0,-6 -3,-11 -11,-11 -6,0 -11,5 -11,13 0,7 6,13 12,13 7,0 10,-7 10,-8zm-4 -7l-14 0c1,-9 5,-10 7,-10 6,0 7,8 7,10z"/>
  <path id="4" class="fil4" d="M896 135l0 -2c-4,0 -4,0 -4,-2l0 -32 -1 0 -3 5c0,-1 -3,-5 -7,-5 -7,0 -13,5 -13,13 0,7 6,13 12,13 4,0 7,-3 8,-4l0 10c0,2 -1,2 -5,2l0 2 7 0 6 0zm-8 -19c0,2 -1,4 -2,5 -1,1 -3,2 -5,2 -5,0 -8,-5 -8,-11 0,-7 4,-12 8,-12 5,0 7,5 7,8l0 8z"/>
  <path class="fil2" d="M1131 159c0,-1 -2,-1 -3,-1 -3,0 -3,0 -4,3 -1,3 -3,12 -7,12 -1,0 -2,-1 -2,-4 0,-2 0,-3 1,-4l8 -32c0,-2 0,-2 0,-2 0,-4 -3,-5 -5,-5 -2,0 -6,0 -7,6l-8 32c-1,2 -1,3 -4,6 -2,1 -4,3 -8,3 -5,0 -6,-5 -6,-8 0,-7 4,-17 7,-24 1,-3 1,-4 1,-6 0,-6 -5,-10 -11,-10 -12,0 -18,15 -18,18 0,1 2,1 3,1 2,0 3,0 4,-1 0,-3 3,-14 10,-14 1,0 2,0 2,2 0,2 -2,6 -2,7 -4,10 -7,18 -7,25 0,10 7,14 17,14 3,0 7,0 13,-6 2,4 7,6 12,6 5,0 8,-4 9,-6 3,-5 5,-11 5,-12z"/>
  <path id="1" class="fil2" d="M1153 189c0,-4 -4,-9 -9,-10 4,-2 7,-6 7,-10 0,-5 -5,-8 -10,-8 -6,0 -10,3 -10,8 0,2 1,3 3,3 2,0 3,-1 3,-3 0,-3 -3,-3 -4,-3 2,-3 6,-4 8,-4 2,0 5,2 5,7 0,1 0,4 -1,6 -2,3 -4,3 -5,3 -1,0 -2,0 -3,0 0,1 0,1 0,1 0,1 0,1 1,1l2 0c5,0 7,4 7,9 0,8 -4,10 -6,10 -3,0 -7,-1 -9,-5 2,1 4,-1 4,-3 0,-2 -2,-3 -3,-3 -2,0 -4,1 -4,3 0,5 6,9 12,9 7,0 12,-5 12,-11z"/>
  <path class="fil2" d="M474 164c0,-2 -1,-2 -3,-2 -2,0 -3,0 -3,3 -1,4 -3,12 -7,12 -2,0 -2,-1 -2,-3 0,-3 0,-3 0,-5l8 -32c1,-1 1,-2 1,-2 0,-4 -3,-5 -6,-5 -1,0 -5,1 -7,6l-8 32c0,2 0,3 -3,6 -2,1 -5,3 -8,3 -6,0 -6,-5 -6,-8 0,-7 4,-17 6,-24 1,-3 2,-4 2,-6 0,-6 -6,-10 -12,-10 -12,0 -17,15 -17,18 0,1 1,1 3,1 2,0 3,0 3,-1 1,-3 4,-14 11,-14 0,0 1,0 1,2 0,2 -1,6 -2,8 -4,9 -7,18 -7,24 0,10 8,14 17,14 3,0 8,0 14,-6 2,4 7,6 11,6 6,0 9,-4 10,-6 3,-5 4,-11 4,-11z"/>
  <path id="1" class="fil2" d="M496 193l-1 0c-1,2 -1,4 -2,5 0,1 -4,1 -5,1l-10 0 6 -6c9,-8 12,-11 12,-17 0,-6 -5,-11 -12,-11 -6,0 -11,5 -11,11 0,3 3,3 3,3 1,0 3,-1 3,-3 0,-2 -1,-3 -3,-3 0,0 0,0 0,0 1,-4 4,-6 7,-6 5,0 8,5 8,9 0,5 -3,9 -6,13l-11 12c-1,1 -1,1 -1,2l22 0 1 -10z"/>
  <path id="2" class="fil2" d="M592 147c0,-10 0,-34 -25,-34 -25,0 -25,24 -25,34 0,11 0,34 25,34 24,0 25,-23 25,-34zm-14 -1c0,6 0,15 0,21 -2,9 -8,11 -11,11 -4,0 -10,-3 -11,-10 -1,-5 -1,-16 -1,-22 0,-7 0,-14 1,-19 1,-10 8,-11 11,-11 3,0 8,2 10,7 1,4 1,15 1,23z"/>
  <path class="fil5 str1" d="M570 233c9,6 18,37 18,37 1,-3 25,-31 31,-37 -15,1 -33,-1 -49,0l0 0z"/>
  <path class="fil6 str2" d="M203 279c10,14 10,24 2,40"/>
  <path class="fil6 str2" d="M216 263c23,30 7,59 5,65"/>
  <path class="fil6 str2" d="M145 294c-4,14 -2,23 9,32"/>
  <path class="fil6 str2" d="M129 284c-11,31 7,51 19,56"/>
  <path class="fil6 str3" d="M179 300c42,95 248,51 318,4 14,-9 124,-78 134,-75l1 -4"/>
  <g id="_1443931754416">
   <path class="fil2" d="M533 344l0 -6 -12 1c-5,0 -11,0 -15,-1l0 6c2,0 5,0 8,1 0,0 0,0 -1,1l-21 31 -23 -33 10 0 0 -6c-5,1 -16,1 -21,1 -4,0 -14,0 -18,-1l0 6 11 0 28 41 0 25 -12 0 0 6c4,-1 15,-1 20,-1 4,0 15,0 20,1l0 -6 -13 0 0 -25 27 -39c1,-2 2,-2 4,-2 2,0 4,0 6,0l2 0z"/>
   <path id="1" class="fil2" d="M561 428l-1 0c-1,2 -1,5 -2,5 0,1 -4,1 -5,1l-10 0 6 -6c9,-8 12,-11 12,-16 0,-7 -5,-11 -12,-11 -6,0 -11,5 -11,10 0,3 3,3 3,3 1,0 3,-1 3,-3 0,-1 -1,-3 -3,-3 0,0 0,0 0,0 1,-3 4,-6 7,-6 5,0 8,5 8,10 0,4 -3,9 -6,12l-11 12c-1,1 -1,1 -1,2l21 0 2 -10z"/>
   <path id="2" class="fil2" d="M588 438l0 -1 -2 0c-5,0 -6,-1 -6,-3l0 -32c0,-1 0,-1 -1,-1 -3,3 -8,3 -10,3l0 2c1,0 4,0 7,-1l0 29c0,2 0,3 -5,3l-2 0 0 1c2,0 7,0 9,0 3,0 8,0 10,0z"/>
   <path class="fil2" d="M533 344l0 -6 -12 1c-5,0 -11,0 -15,-1l0 6c2,0 5,0 8,1 0,0 0,0 -1,1l-21 31 -23 -33 10 0 0 -6c-5,1 -16,1 -21,1 -4,0 -14,0 -18,-1l0 6 11 0 28 41 0 25 -12 0 0 6c4,-1 15,-1 20,-1 4,0 15,0 20,1l0 -6 -13 0 0 -25 27 -39c1,-2 2,-2 4,-2 2,0 4,0 6,0l2 0z"/>
   <path id="1" class="fil2" d="M576 359l0 -1 -1 0c-3,0 -4,-1 -5,-3l-12 -35c0,-1 0,-1 -1,-1 -1,0 -1,0 -2,1l-11 34c-1,3 -3,4 -7,4l0 1 6 0 7 0 0 -1c-3,0 -5,-2 -5,-3 0,0 1,-1 1,-1l2 -8 14 0 3 9c0,0 0,1 0,1 0,2 -3,2 -4,2l0 1c2,0 6,0 8,0l7 0zm-14 -14l-13 0 6 -19 7 19z"/>
   <path id="2" class="fil2" d="M615 349c0,-5 -5,-9 -11,-10 5,-1 9,-5 9,-9 0,-5 -5,-9 -12,-9l-21 0 0 2 1 0c5,0 5,0 5,2l0 30c0,2 0,3 -5,3l-1 0 0 1 22 0c8,0 13,-5 13,-10l0 0zm-7 -19c0,4 -3,9 -9,9l-8 0 0 -14c0,-2 0,-2 2,-2l7 0c6,0 8,4 8,7l0 0zm1 19c0,4 -3,9 -9,9l-7 0c-2,0 -2,-1 -2,-3l0 -15 10 0c6,0 8,5 8,9l0 0z"/>
  </g>
  <path class="fil7 str4" d="M677 244c-5,-9 -2,-41 -3,-41 -2,2 -35,19 -42,22 14,5 30,14 45,19l0 0z"/>
  <path class="fil2" d="M528 143c0,-1 -1,-1 -1,-1l-34 0c-1,0 -2,0 -2,1 0,1 1,1 2,1l34 0c0,0 1,0 1,-1zm0 11c0,-1 -1,-1 -1,-1l-34 0c-1,0 -2,0 -2,1 0,1 1,1 2,1l34 0c0,0 1,0 1,-1z"/>
  <path class="fil6 str4" d="M632 225c8,-4 134,-5 150,0"/>
 </g>
</svg>
