<?xml version="1.0" encoding="UTF-8" standalone="no"?>
<!-- Created with Inkscape (http://www.inkscape.org/) -->

<svg
   xmlns:dc="http://purl.org/dc/elements/1.1/"
   xmlns:cc="http://creativecommons.org/ns#"
   xmlns:rdf="http://www.w3.org/1999/02/22-rdf-syntax-ns#"
   xmlns:svg="http://www.w3.org/2000/svg"
   xmlns="http://www.w3.org/2000/svg"
   xmlns:xlink="http://www.w3.org/1999/xlink"
   xmlns:sodipodi="http://sodipodi.sourceforge.net/DTD/sodipodi-0.dtd"
   xmlns:inkscape="http://www.inkscape.org/namespaces/inkscape"
   width="40mm"
   height="40mm"
   viewBox="0 0 141.73228 141.73228"
   id="svg2"
   version="1.1"
   inkscape:version="0.91 r13725"
   sodipodi:docname="Y_matrix.svg">
  <defs
     id="defs4">
    <clipPath
       id="clipPath4196"
       clipPathUnits="userSpaceOnUse">
      <path
         inkscape:connector-curvature="0"
         id="path4198"
         d="m -1,-1 86.5552,0 0,77.8665 L -1,76.8665 -1,-1 Z" />
    </clipPath>
    <clipPath
       id="clipPath4330"
       clipPathUnits="userSpaceOnUse">
      <path
         inkscape:connector-curvature="0"
         id="path4332"
         d="m -1,-1 95.5107,0 0,86.5045 L -1,85.5045 -1,-1 Z" />
    </clipPath>
    <clipPath
       id="clipPath4342"
       clipPathUnits="userSpaceOnUse">
      <path
         style="clip-rule:evenodd"
         inkscape:connector-curvature="0"
         id="path4344"
         d="m 11.5294,78.3343 70.8661,0 0,-0.5 -70.8661,0 0,0.5 z" />
    </clipPath>
    <clipPath
       id="clipPath4354"
       clipPathUnits="userSpaceOnUse">
      <path
         style="clip-rule:evenodd"
         inkscape:connector-curvature="0"
         id="path4356"
         d="m 11.5294,64.1611 70.8661,0 0,-0.5001 -70.8661,0 0,0.5001 z" />
    </clipPath>
    <clipPath
       id="clipPath4366"
       clipPathUnits="userSpaceOnUse">
      <path
         style="clip-rule:evenodd"
         inkscape:connector-curvature="0"
         id="path4368"
         d="m 11.5294,49.9878 70.8661,0 0,-0.5 -70.8661,0 0,0.5 z" />
    </clipPath>
    <clipPath
       id="clipPath4378"
       clipPathUnits="userSpaceOnUse">
      <path
         style="clip-rule:evenodd"
         inkscape:connector-curvature="0"
         id="path4380"
         d="m 11.5294,35.8146 70.8661,0 0,-0.5 -70.8661,0 0,0.5 z" />
    </clipPath>
    <clipPath
       id="clipPath4390"
       clipPathUnits="userSpaceOnUse">
      <path
         style="clip-rule:evenodd"
         inkscape:connector-curvature="0"
         id="path4392"
         d="m 11.5294,21.6414 70.8661,0 0,-0.5 -70.8661,0 0,0.5 z" />
    </clipPath>
    <clipPath
       id="clipPath4402"
       clipPathUnits="userSpaceOnUse">
      <path
         style="clip-rule:evenodd"
         inkscape:connector-curvature="0"
         id="path4404"
         d="m 11.5294,7.4682 70.8661,0 0,-0.5001 -70.8661,0 0,0.5001 z" />
    </clipPath>
    <clipPath
       id="clipPath4414"
       clipPathUnits="userSpaceOnUse">
      <path
         style="clip-rule:evenodd"
         inkscape:connector-curvature="0"
         id="path4416"
         d="m 11.7904,78.0531 0,-70.8661 -0.5,0 0,70.8661 0.5,0 z" />
    </clipPath>
    <clipPath
       id="clipPath4426"
       clipPathUnits="userSpaceOnUse">
      <path
         style="clip-rule:evenodd"
         inkscape:connector-curvature="0"
         id="path4428"
         d="m 25.9526,78.0843 0,-70.8662 -0.5,0 0,70.8662 0.5,0 z" />
    </clipPath>
    <clipPath
       id="clipPath4438"
       clipPathUnits="userSpaceOnUse">
      <path
         style="clip-rule:evenodd"
         inkscape:connector-curvature="0"
         id="path4440"
         d="m 40.1258,78.0843 0,-70.8662 -0.5,0 0,70.8662 0.5,0 z" />
    </clipPath>
    <clipPath
       id="clipPath4450"
       clipPathUnits="userSpaceOnUse">
      <path
         style="clip-rule:evenodd"
         inkscape:connector-curvature="0"
         id="path4452"
         d="m 54.2991,77.9953 0,-70.8662 -0.5001,0 0,70.8662 0.5001,0 z" />
    </clipPath>
    <clipPath
       id="clipPath4462"
       clipPathUnits="userSpaceOnUse">
      <path
         style="clip-rule:evenodd"
         inkscape:connector-curvature="0"
         id="path4464"
         d="m 68.4723,77.9865 0,-70.8662 -0.5,0 0,70.8662 0.5,0 z" />
    </clipPath>
    <clipPath
       id="clipPath4474"
       clipPathUnits="userSpaceOnUse">
      <path
         style="clip-rule:evenodd"
         inkscape:connector-curvature="0"
         id="path4476"
         d="m 82.6455,78.0843 0,-70.8662 -0.5,0 0,70.8662 0.5,0 z" />
    </clipPath>
    <clipPath
       id="clipPath4538"
       clipPathUnits="userSpaceOnUse">
      <path
         inkscape:connector-curvature="0"
         id="path4540"
         d="m -1,-1 87.0371,0 0,77.8665 L -1,76.8665 -1,-1 Z" />
    </clipPath>
    <clipPath
       id="clipPath4554"
       clipPathUnits="userSpaceOnUse">
      <path
         style="clip-rule:evenodd"
         inkscape:connector-curvature="0"
         id="path4556"
         d="m 11.6708,73.6163 70.8661,0 0,-0.5 -70.8661,0 0,0.5 z" />
    </clipPath>
    <clipPath
       id="clipPath4566"
       clipPathUnits="userSpaceOnUse">
      <path
         style="clip-rule:evenodd"
         inkscape:connector-curvature="0"
         id="path4568"
         d="m 11.6708,59.4431 70.8661,0 0,-0.5 -70.8661,0 0,0.5 z" />
    </clipPath>
    <clipPath
       id="clipPath4578"
       clipPathUnits="userSpaceOnUse">
      <path
         style="clip-rule:evenodd"
         inkscape:connector-curvature="0"
         id="path4580"
         d="m 11.6708,45.2699 70.8661,0 0,-0.5001 -70.8661,0 0,0.5001 z" />
    </clipPath>
    <clipPath
       id="clipPath4590"
       clipPathUnits="userSpaceOnUse">
      <path
         style="clip-rule:evenodd"
         inkscape:connector-curvature="0"
         id="path4592"
         d="m 11.6708,31.0966 70.8661,0 0,-0.5 -70.8661,0 0,0.5 z" />
    </clipPath>
    <clipPath
       id="clipPath4602"
       clipPathUnits="userSpaceOnUse">
      <path
         style="clip-rule:evenodd"
         inkscape:connector-curvature="0"
         id="path4604"
         d="m 11.6708,16.9234 70.8661,0 0,-0.5 -70.8661,0 0,0.5 z" />
    </clipPath>
    <clipPath
       id="clipPath4614"
       clipPathUnits="userSpaceOnUse">
      <path
         style="clip-rule:evenodd"
         inkscape:connector-curvature="0"
         id="path4616"
         d="m 11.6708,2.7502 70.8661,0 0,-0.5001 -70.8661,0 0,0.5001 z" />
    </clipPath>
    <clipPath
       id="clipPath4626"
       clipPathUnits="userSpaceOnUse">
      <path
         style="clip-rule:evenodd"
         inkscape:connector-curvature="0"
         id="path4628"
         d="m 11.9319,73.3351 0,-70.8661 -0.5001,0 0,70.8661 0.5001,0 z" />
    </clipPath>
    <clipPath
       id="clipPath4638"
       clipPathUnits="userSpaceOnUse">
      <path
         style="clip-rule:evenodd"
         inkscape:connector-curvature="0"
         id="path4640"
         d="m 26.094,73.3663 0,-70.8661 -0.5,0 0,70.8661 0.5,0 z" />
    </clipPath>
    <clipPath
       id="clipPath4650"
       clipPathUnits="userSpaceOnUse">
      <path
         style="clip-rule:evenodd"
         inkscape:connector-curvature="0"
         id="path4652"
         d="m 40.2673,73.3663 0,-70.8661 -0.5001,0 0,70.8661 0.5001,0 z" />
    </clipPath>
    <clipPath
       id="clipPath4662"
       clipPathUnits="userSpaceOnUse">
      <path
         style="clip-rule:evenodd"
         inkscape:connector-curvature="0"
         id="path4664"
         d="m 54.4405,73.3663 0,-70.8661 -0.5,0 0,70.8661 0.5,0 z" />
    </clipPath>
    <clipPath
       id="clipPath4674"
       clipPathUnits="userSpaceOnUse">
      <path
         style="clip-rule:evenodd"
         inkscape:connector-curvature="0"
         id="path4676"
         d="m 68.6137,73.3663 0,-70.8661 -0.5,0 0,70.8661 0.5,0 z" />
    </clipPath>
    <clipPath
       id="clipPath4686"
       clipPathUnits="userSpaceOnUse">
      <path
         style="clip-rule:evenodd"
         inkscape:connector-curvature="0"
         id="path4688"
         d="m 82.787,73.3663 0,-70.8661 -0.5001,0 0,70.8661 0.5001,0 z" />
    </clipPath>
  </defs>
  <sodipodi:namedview
     id="base"
     pagecolor="#ffffff"
     bordercolor="#666666"
     borderopacity="1.0"
     inkscape:pageopacity="0.0"
     inkscape:pageshadow="2"
     inkscape:zoom="1.4"
     inkscape:cx="16.697487"
     inkscape:cy="59.963748"
     inkscape:document-units="px"
     inkscape:current-layer="layer1"
     showgrid="false"
     inkscape:window-width="1920"
     inkscape:window-height="1027"
     inkscape:window-x="-8"
     inkscape:window-y="-8"
     inkscape:window-maximized="1" />
  <metadata
     id="metadata7">
    <rdf:RDF>
      <cc:Work
         rdf:about="">
        <dc:format>image/svg+xml</dc:format>
        <dc:type
           rdf:resource="http://purl.org/dc/dcmitype/StillImage" />
        <dc:title></dc:title>
      </cc:Work>
    </rdf:RDF>
  </metadata>
  <g
     inkscape:label="Layer 1"
     inkscape:groupmode="layer"
     id="layer1"
     transform="translate(0,-910.62992)">
    <g
       id="g4340"
       clip-path="url(#clipPath4342)"
       transform="matrix(1.3801,0,0,-1.3801,3.87425,1040.4952)">
      <g
         id="g4346"
         transform="matrix(70.86643,0,0,0.50031,11.5294,77.8343)">
        <image
           width="1"
           height="1"
           preserveAspectRatio="none"
           transform="matrix(1,0,0,-1,0,1)"
           xlink:href="data:image/png;base64,iVBORw0KGgoAAAANSUhEUgAAASgAAAADCAYAAAAgG5JYAAAABHNCSVQICAgIfAhkiAAAACpJREFUSInt1LENADAIwDDK/xLqxe0FzDDYF2TKuVUvABbK6QCAjkEBa31oqQK0TC7dBAAAAABJRU5ErkJggg=="
           id="image4348" />
      </g>
    </g>
    <g
       id="g4352"
       clip-path="url(#clipPath4354)"
       transform="matrix(1.3801,0,0,-1.3801,3.87425,1040.4952)">
      <g
         id="g4358"
         transform="matrix(70.86643,0,0,0.50031,11.5294,63.661)">
        <image
           width="1"
           height="1"
           preserveAspectRatio="none"
           transform="matrix(1,0,0,-1,0,1)"
           xlink:href="data:image/png;base64,iVBORw0KGgoAAAANSUhEUgAAASgAAAADCAYAAAAgG5JYAAAABHNCSVQICAgIfAhkiAAAACpJREFUSInt1LENADAIwDDK/xLqxe0FzDDYF2TKuVUvABbK6QCAjkEBa31oqQK0TC7dBAAAAABJRU5ErkJggg=="
           id="image4360" />
      </g>
    </g>
    <g
       id="g4364"
       clip-path="url(#clipPath4366)"
       transform="matrix(1.3801,0,0,-1.3801,3.87425,1040.4952)">
      <g
         id="g4370"
         transform="matrix(70.86643,0,0,0.50031,11.5294,49.4878)">
        <image
           width="1"
           height="1"
           preserveAspectRatio="none"
           transform="matrix(1,0,0,-1,0,1)"
           xlink:href="data:image/png;base64,iVBORw0KGgoAAAANSUhEUgAAASgAAAADCAYAAAAgG5JYAAAABHNCSVQICAgIfAhkiAAAACpJREFUSInt1LENADAIwDDK/xLqxe0FzDDYF2TKuVUvABbK6QCAjkEBa31oqQK0TC7dBAAAAABJRU5ErkJggg=="
           id="image4372" />
      </g>
    </g>
    <g
       id="g4376"
       clip-path="url(#clipPath4378)"
       transform="matrix(1.3801,0,0,-1.3801,3.87425,1040.4952)">
      <g
         id="g4382"
         transform="matrix(70.86643,0,0,0.50031,11.5294,35.3146)">
        <image
           width="1"
           height="1"
           preserveAspectRatio="none"
           transform="matrix(1,0,0,-1,0,1)"
           xlink:href="data:image/png;base64,iVBORw0KGgoAAAANSUhEUgAAASgAAAADCAYAAAAgG5JYAAAABHNCSVQICAgIfAhkiAAAACpJREFUSInt1LENADAIwDDK/xLqxe0FzDDYF2TKuVUvABbK6QCAjkEBa31oqQK0TC7dBAAAAABJRU5ErkJggg=="
           id="image4384" />
      </g>
    </g>
    <g
       id="g4388"
       clip-path="url(#clipPath4390)"
       transform="matrix(1.3801,0,0,-1.3801,3.87425,1040.4952)">
      <g
         id="g4394"
         transform="matrix(70.86643,0,0,0.50031,11.5294,21.1414)">
        <image
           width="1"
           height="1"
           preserveAspectRatio="none"
           transform="matrix(1,0,0,-1,0,1)"
           xlink:href="data:image/png;base64,iVBORw0KGgoAAAANSUhEUgAAASgAAAADCAYAAAAgG5JYAAAABHNCSVQICAgIfAhkiAAAACpJREFUSInt1LENADAIwDDK/xLqxe0FzDDYF2TKuVUvABbK6QCAjkEBa31oqQK0TC7dBAAAAABJRU5ErkJggg=="
           id="image4396" />
      </g>
    </g>
    <g
       id="g4400"
       clip-path="url(#clipPath4402)"
       transform="matrix(1.3801,0,0,-1.3801,3.87425,1040.4952)">
      <g
         id="g4406"
         transform="matrix(70.86643,0,0,0.50031,11.5294,6.9681)">
        <image
           width="1"
           height="1"
           preserveAspectRatio="none"
           transform="matrix(1,0,0,-1,0,1)"
           xlink:href="data:image/png;base64,iVBORw0KGgoAAAANSUhEUgAAASgAAAADCAYAAAAgG5JYAAAABHNCSVQICAgIfAhkiAAAACpJREFUSInt1LENADAIwDDK/xLqxe0FzDDYF2TKuVUvABbK6QCAjkEBa31oqQK0TC7dBAAAAABJRU5ErkJggg=="
           id="image4408" />
      </g>
    </g>
    <g
       id="g4412"
       clip-path="url(#clipPath4414)"
       transform="matrix(1.3801,0,0,-1.3801,3.87425,1040.4952)">
      <g
         id="g4418"
         transform="matrix(0.50031,0,0,70.86643,11.2904,7.187)">
        <image
           width="1"
           height="1"
           preserveAspectRatio="none"
           transform="matrix(1,0,0,-1,0,1)"
           xlink:href="data:image/png;base64,iVBORw0KGgoAAAANSUhEUgAAAAMAAAEoCAYAAACdNEv+AAAABHNCSVQICAgIfAhkiAAAAEZJREFUSIljjAwL/88ABUwMSIDFwtKCAavMKGeUM3Q5LCeOnyBG2WjyH+UMQ85o8h/ljGDOaPIf5YxgzmjyH+WMYA7u5A8AEW0TaZMpxPMAAAAASUVORK5CYII="
           id="image4420" />
      </g>
    </g>
    <g
       id="g4424"
       clip-path="url(#clipPath4426)"
       transform="matrix(1.3801,0,0,-1.3801,3.87425,1040.4952)">
      <g
         id="g4430"
         transform="matrix(0.50031,0,0,70.86643,25.4526,7.2181)">
        <image
           width="1"
           height="1"
           preserveAspectRatio="none"
           transform="matrix(1,0,0,-1,0,1)"
           xlink:href="data:image/png;base64,iVBORw0KGgoAAAANSUhEUgAAAAMAAAEoCAYAAACdNEv+AAAABHNCSVQICAgIfAhkiAAAAEZJREFUSIljjAwL/88ABUwMSIDFwtKCAavMKGeUM3Q5LCeOnyBG2WjyH+UMQ85o8h/ljGDOaPIf5YxgzmjyH+WMYA7u5A8AEW0TaZMpxPMAAAAASUVORK5CYII="
           id="image4432" />
      </g>
    </g>
    <g
       id="g4436"
       clip-path="url(#clipPath4438)"
       transform="matrix(1.3801,0,0,-1.3801,3.87425,1040.4952)">
      <g
         id="g4442"
         transform="matrix(0.50031,0,0,70.86643,39.6258,7.2181)">
        <image
           width="1"
           height="1"
           preserveAspectRatio="none"
           transform="matrix(1,0,0,-1,0,1)"
           xlink:href="data:image/png;base64,iVBORw0KGgoAAAANSUhEUgAAAAMAAAEoCAYAAACdNEv+AAAABHNCSVQICAgIfAhkiAAAAEZJREFUSIljjAwL/88ABUwMSIDFwtKCAavMKGeUM3Q5LCeOnyBG2WjyH+UMQ85o8h/ljGDOaPIf5YxgzmjyH+WMYA7u5A8AEW0TaZMpxPMAAAAASUVORK5CYII="
           id="image4444" />
      </g>
    </g>
    <g
       id="g4448"
       clip-path="url(#clipPath4450)"
       transform="matrix(1.3801,0,0,-1.3801,3.87425,1040.4952)">
      <g
         id="g4454"
         transform="matrix(0.50031,0,0,70.86643,53.799,7.1291)">
        <image
           width="1"
           height="1"
           preserveAspectRatio="none"
           transform="matrix(1,0,0,-1,0,1)"
           xlink:href="data:image/png;base64,iVBORw0KGgoAAAANSUhEUgAAAAMAAAEoCAYAAACdNEv+AAAABHNCSVQICAgIfAhkiAAAAEZJREFUSIljjAwL/88ABUwMSIDFwtKCAavMKGeUM3Q5LCeOnyBG2WjyH+UMQ85o8h/ljGDOaPIf5YxgzmjyH+WMYA7u5A8AEW0TaZMpxPMAAAAASUVORK5CYII="
           id="image4456" />
      </g>
    </g>
    <g
       id="g4460"
       clip-path="url(#clipPath4462)"
       transform="matrix(1.3801,0,0,-1.3801,3.87425,1040.4952)">
      <g
         id="g4466"
         transform="matrix(0.50031,0,0,70.86643,67.9723,7.1203)">
        <image
           width="1"
           height="1"
           preserveAspectRatio="none"
           transform="matrix(1,0,0,-1,0,1)"
           xlink:href="data:image/png;base64,iVBORw0KGgoAAAANSUhEUgAAAAMAAAEoCAYAAACdNEv+AAAABHNCSVQICAgIfAhkiAAAAEZJREFUSIljjAwL/88ABUwMSIDFwtKCAavMKGeUM3Q5LCeOnyBG2WjyH+UMQ85o8h/ljGDOaPIf5YxgzmjyH+WMYA7u5A8AEW0TaZMpxPMAAAAASUVORK5CYII="
           id="image4468" />
      </g>
    </g>
    <g
       id="g4472"
       clip-path="url(#clipPath4474)"
       transform="matrix(1.3801,0,0,-1.3801,3.87425,1040.4952)">
      <g
         id="g4478"
         transform="matrix(0.50031,0,0,70.86643,82.1455,7.2181)">
        <image
           width="1"
           height="1"
           preserveAspectRatio="none"
           transform="matrix(1,0,0,-1,0,1)"
           xlink:href="data:image/png;base64,iVBORw0KGgoAAAANSUhEUgAAAAMAAAEoCAYAAACdNEv+AAAABHNCSVQICAgIfAhkiAAAAExJREFUSInt0rENwCAMRNEjylBmkSAmxlslHYICURN/d0++8qf6lFeSLJsuDXdbto7pA8DB8Oby5psZ+YNfgvxBYJA/CAzyB4GxzP8Dw3Efu6eQS/0AAAAASUVORK5CYII="
           id="image4480" />
      </g>
    </g>
    <path
       inkscape:connector-curvature="0"
       id="path4482"
       style="fill:none;stroke:#1f77b4;stroke-width:0.68963599;stroke-linecap:butt;stroke-linejoin:miter;stroke-miterlimit:2.61312604;stroke-dasharray:none;stroke-opacity:1"
       d="m 19.59925,927.32107 c -3.38042,30.07969 0.64519,62.7421 12.07629,97.98733" />
    <path
       inkscape:connector-curvature="0"
       id="path4484"
       style="fill:none;stroke:#1f77b4;stroke-width:0.68963599;stroke-linecap:butt;stroke-linejoin:miter;stroke-miterlimit:2.61312604;stroke-dasharray:none;stroke-opacity:1"
       d="m 39.15982,932.01561 c -3.38042,30.0797 0.64506,62.74211 12.07615,97.98739" />
    <path
       inkscape:connector-curvature="0"
       id="path4486"
       style="fill:none;stroke:#1f77b4;stroke-width:0.68963599;stroke-linecap:butt;stroke-linejoin:miter;stroke-miterlimit:2.61312604;stroke-dasharray:none;stroke-opacity:1"
       d="m 58.72025,935.53639 c -3.38041,30.07969 0.64506,62.74224 12.07629,97.98751" />
    <path
       inkscape:connector-curvature="0"
       id="path4488"
       style="fill:none;stroke:#1f77b4;stroke-width:0.68963599;stroke-linecap:butt;stroke-linejoin:miter;stroke-miterlimit:2.61312604;stroke-dasharray:none;stroke-opacity:1"
       d="m 78.28069,937.49254 c -3.38042,30.07969 0.64519,62.74206 12.07628,97.98736" />
    <path
       inkscape:connector-curvature="0"
       id="path4490"
       style="fill:none;stroke:#1f77b4;stroke-width:0.68963599;stroke-linecap:butt;stroke-linejoin:miter;stroke-miterlimit:2.61312604;stroke-dasharray:none;stroke-opacity:1"
       d="m 97.84126,938.27492 c -3.38056,30.07969 0.64506,62.74208 12.07615,97.98738" />
    <path
       inkscape:connector-curvature="0"
       id="path4492"
       style="fill:none;stroke:#1f77b4;stroke-width:0.68963599;stroke-linecap:butt;stroke-linejoin:miter;stroke-miterlimit:2.61312604;stroke-dasharray:none;stroke-opacity:1"
       d="m 117.40169,939.0573 c -3.38042,30.07969 0.64506,62.7422 12.07629,97.9874" />
    <path
       inkscape:connector-curvature="0"
       id="path4494"
       style="fill:none;stroke:#1f77b4;stroke-width:0.68963599;stroke-linecap:butt;stroke-linejoin:miter;stroke-miterlimit:2.61312604;stroke-dasharray:none;stroke-opacity:1"
       d="m 19.59925,927.32107 c 25.89895,7.72442 58.49954,11.63645 97.80244,11.73623" />
    <path
       inkscape:connector-curvature="0"
       id="path4496"
       style="fill:none;stroke:#1f77b4;stroke-width:0.68963599;stroke-linecap:butt;stroke-linejoin:miter;stroke-miterlimit:2.61312604;stroke-dasharray:none;stroke-opacity:1"
       d="m 18.81687,946.8815 c 25.89882,7.72442 58.49954,11.63659 97.80244,11.73637" />
    <path
       inkscape:connector-curvature="0"
       id="path4498"
       style="fill:none;stroke:#1f77b4;stroke-width:0.68963599;stroke-linecap:butt;stroke-linejoin:miter;stroke-miterlimit:2.61312604;stroke-dasharray:none;stroke-opacity:1"
       d="m 19.20813,966.44193 c 25.89882,7.72442 58.49954,11.63659 97.8023,11.73637" />
    <path
       inkscape:connector-curvature="0"
       id="path4500"
       style="fill:none;stroke:#1f77b4;stroke-width:0.68963599;stroke-linecap:butt;stroke-linejoin:miter;stroke-miterlimit:2.61312604;stroke-dasharray:none;stroke-opacity:1"
       d="m 21.94652,986.0025 c 25.89896,7.72442 58.49954,11.63645 97.80244,11.73624" />
    <path
       inkscape:connector-curvature="0"
       id="path4502"
       style="fill:none;stroke:#1f77b4;stroke-width:0.68963599;stroke-linecap:butt;stroke-linejoin:miter;stroke-miterlimit:2.61312604;stroke-dasharray:none;stroke-opacity:1"
       d="m 25.85869,1005.5629 c 25.89882,7.7245 58.4994,11.6366 97.80231,11.7363" />
    <path
       inkscape:connector-curvature="0"
       id="path4504"
       style="fill:none;stroke:#1f77b4;stroke-width:0.68963599;stroke-linecap:butt;stroke-linejoin:miter;stroke-miterlimit:2.61312604;stroke-dasharray:none;stroke-opacity:1"
       d="m 31.72674,1025.1234 c 25.89895,7.7244 58.49954,11.6366 97.80244,11.7363" />
    <path
       inkscape:connector-curvature="0"
       id="path4506"
       style="fill:#1f77b4;fill-opacity:1;fill-rule:evenodd;stroke:#231f20;stroke-width:0.68963599;stroke-linecap:butt;stroke-linejoin:miter;stroke-miterlimit:2.61312604;stroke-dasharray:none;stroke-opacity:1"
       d="m 19.59925,924.21556 c 1.71519,0 3.1055,1.39046 3.1055,3.10551 0,1.71505 -1.39031,3.10536 -3.1055,3.10536 -1.71505,0 -3.10537,-1.39031 -3.10537,-3.10536 0,-1.71505 1.39032,-3.10551 3.10537,-3.10551 z" />
    <path
       inkscape:connector-curvature="0"
       id="path4508"
       style="fill:#1f77b4;fill-opacity:1;fill-rule:evenodd;stroke:#231f20;stroke-width:0.68963599;stroke-linecap:butt;stroke-linejoin:miter;stroke-miterlimit:2.61312604;stroke-dasharray:none;stroke-opacity:1"
       d="m 117.40169,935.95193 c 1.71505,0 3.10536,1.39032 3.10536,3.10537 0,1.71505 -1.39031,3.1055 -3.10536,3.1055 -1.71505,0 -3.1055,-1.39045 -3.1055,-3.1055 0,-1.71505 1.39045,-3.10537 3.1055,-3.10537 z" />
    <path
       inkscape:connector-curvature="0"
       id="path4510"
       style="fill:#1f77b4;fill-opacity:1;fill-rule:evenodd;stroke:#231f20;stroke-width:0.68963599;stroke-linecap:butt;stroke-linejoin:miter;stroke-miterlimit:2.61312604;stroke-dasharray:none;stroke-opacity:1"
       d="m 129.47798,1033.9393 c 1.71505,0 3.10536,1.3903 3.10536,3.1054 0,1.7152 -1.39031,3.1055 -3.10536,3.1055 -1.71519,0 -3.1055,-1.3903 -3.1055,-3.1055 0,-1.7151 1.39031,-3.1054 3.1055,-3.1054 z" />
    <path
       inkscape:connector-curvature="0"
       id="path4512"
       style="fill:#1f77b4;fill-opacity:1;fill-rule:evenodd;stroke:#231f20;stroke-width:0.68963599;stroke-linecap:butt;stroke-linejoin:miter;stroke-miterlimit:2.61312604;stroke-dasharray:none;stroke-opacity:1"
       d="m 31.67554,1022.2031 c 1.71505,0 3.1055,1.3903 3.1055,3.1053 0,1.7151 -1.39045,3.1054 -3.1055,3.1054 -1.71505,0 -3.10537,-1.3903 -3.10537,-3.1054 0,-1.715 1.39032,-3.1053 3.10537,-3.1053 z" />
    <path
       d="m 27.33429,1027.5931 -7.40948,3.256 -0.27781,-0.6314 7.40948,-3.256 0.27781,0.6314 z m 4.34125,-2.2847 -4.46532,4.7739 0.007,-0.1787 0.002,-0.1765 -0.002,-0.1744 -0.007,-0.173 -0.0117,-0.1705 -0.0164,-0.1683 -0.0207,-0.1666 -0.0258,-0.1643 -0.0302,-0.1627 -0.0348,-0.1604 -0.0391,-0.1584 -0.0443,-0.1565 -0.0484,-0.1542 -0.0533,-0.1525 -0.0578,-0.1503 -0.0627,-0.1482 -0.0669,-0.1463 -0.0715,-0.1441 -0.0763,-0.1423 -0.0806,-0.1401 -0.0857,-0.1385 -0.09,-0.1361 -0.0947,-0.1341 -0.0994,-0.132 -0.10365,-0.1303 -0.10875,-0.1278 -0.11303,-0.126 -0.11745,-0.124 -0.12241,-0.122 -0.12669,-0.1201 -0.13153,-0.1179 -0.13608,-0.1162 0,0 6.5363,-0.061 z"
       style="fill:#231f20;fill-opacity:1;fill-rule:nonzero;stroke:none"
       id="path4516"
       inkscape:connector-curvature="0" />
    <path
       inkscape:connector-curvature="0"
       id="path4518"
       style="fill:#231f20;fill-opacity:1;fill-rule:nonzero;stroke:none"
       d="m 8.1803,1021.7003 -1.87155,0 0,5.5176 c 0,0.2676 0.0857,0.4331 0.25932,0.4914 0.17955,0.072 0.6267,0.1049 1.34463,0.1049 l 0,0.5105 c -0.70965,-0.033 -1.42164,-0.05 -2.13364,-0.05 -0.61856,0 -1.23933,0.016 -1.86603,0.05 l 0,-0.5105 c 0.5715,0 0.93019,-0.033 1.0711,-0.099 0.14353,-0.069 0.21515,-0.2348 0.21515,-0.4969 l 0,-5.5176 -1.32503,0 0,-0.5137 1.32503,0 0,-1.9814 c 0,-0.7124 0.25656,-1.3169 0.7672,-1.8109 0.23738,-0.2374 0.51906,-0.4248 0.84186,-0.5602 0.32308,-0.1354 0.64865,-0.2015 0.97725,-0.2015 0.2429,0 0.47765,0.047 0.70647,0.1409 0.22924,0.094 0.41431,0.2316 0.5548,0.4165 0.14077,0.1823 0.21006,0.3948 0.21006,0.6377 0,0.2207 -0.0721,0.392 -0.21558,0.5188 -0.14353,0.1271 -0.31452,0.1905 -0.51325,0.1905 -0.19874,0 -0.37015,-0.063 -0.51326,-0.1905 -0.14353,-0.1268 -0.21558,-0.2981 -0.21558,-0.5188 0,-0.1905 0.0497,-0.3422 0.14629,-0.4608 0.0966,-0.1189 0.21834,-0.1959 0.36463,-0.2347 -0.14629,-0.08 -0.33136,-0.1186 -0.5606,-0.1186 -0.40299,0 -0.75353,0.2043 -1.04335,0.6154 -0.30363,0.4248 -0.45268,0.9495 -0.45268,1.5762 l 0,1.9814 1.92676,0 0,0.5137 z" />
    <path
       inkscape:connector-curvature="0"
       id="path4520"
       style="fill:#231f20;fill-opacity:1;fill-rule:nonzero;stroke:none"
       d="m 10.33036,1030.9994 c 0.91238,0 1.38175,-0.016 1.40922,-0.048 0.0649,-0.073 0.13097,-0.3244 0.19873,-0.7523 l 0.21116,0 -0.23586,1.438 -3.06824,0 0,-0.174 c 0,-0.011 0.006,-0.026 0.0168,-0.048 l 1.25299,-1.3981 c 0.20964,-0.2316 0.37829,-0.4237 0.50663,-0.5767 0.12835,-0.1518 0.25118,-0.3204 0.36973,-0.5051 0.11883,-0.1838 0.21392,-0.3798 0.28706,-0.5851 0.0731,-0.207 0.10917,-0.4143 0.10917,-0.6214 0,-0.2484 -0.0431,-0.4761 -0.12711,-0.683 -0.0857,-0.207 -0.20963,-0.3712 -0.37249,-0.4929 -0.16312,-0.1213 -0.3602,-0.1819 -0.5922,-0.1819 -0.25545,0 -0.48703,0.08 -0.69405,0.2402 -0.20853,0.16 -0.35482,0.3669 -0.44053,0.6208 0.054,-0.011 0.0955,-0.016 0.12449,-0.016 0.11579,0 0.21667,0.039 0.30196,0.1158 0.0845,0.076 0.12711,0.1823 0.12711,0.3177 0,0.1337 -0.0426,0.2386 -0.12987,0.3145 -0.0853,0.076 -0.18617,0.113 -0.2992,0.113 -0.11897,0 -0.22109,-0.039 -0.30956,-0.1158 -0.0868,-0.076 -0.13097,-0.1806 -0.13097,-0.3132 0,-0.2721 0.0693,-0.5275 0.20729,-0.7645 0.13649,-0.2375 0.32432,-0.4253 0.56143,-0.5618 0.23903,-0.1382 0.49297,-0.2069 0.76595,-0.2069 0.33964,0 0.64478,0.069 0.9139,0.2081 0.26761,0.1397 0.47724,0.3314 0.62905,0.5781 0.15057,0.2474 0.22648,0.5235 0.22648,0.8271 0,0.2512 -0.0551,0.4854 -0.16548,0.7022 -0.11192,0.2167 -0.24179,0.4088 -0.39194,0.5755 -0.15057,0.1685 -0.37401,0.3837 -0.67363,0.6474 -0.2981,0.2649 -0.45543,0.4046 -0.47186,0.421 l -0.95378,0.926 0.83758,0 z" />
  </g>
</svg>
